switch_types.vcd
$date
	Wed Dec  3 17:01:48 2025
$end

$version
	Synopsys VCS version X-2025.06-1_Full64
$end

$timescale
	1s
$end

$comment Csum: 1 e6895ba02c61cd4b $end


$scope module switch_types_tb $end
$var reg 1 ! clk $end
$var reg 1 " rst_n $end

$scope task drive_pkt $end
$var reg 32 # p_idx [31:0] $end
$var reg 4 $ src [3:0] $end
$var reg 4 % tgt [3:0] $end
$var reg 8 & payload [7:0] $end
$upscope $end


$scope module port0 $end
$var reg 1 ' valid_in $end
$var reg 4 ( source_in [3:0] $end
$var reg 4 ) target_in [3:0] $end
$var reg 8 * data_in [7:0] $end
$var reg 1 + valid_out $end
$var reg 8 , data_out [7:0] $end
$var reg 1 - clk $end
$var reg 1 . rst_n $end
$var reg 4 / source_out [3:0] $end
$var reg 4 0 target_out [3:0] $end
$upscope $end


$scope module port1 $end
$var reg 1 1 valid_in $end
$var reg 4 2 source_in [3:0] $end
$var reg 4 3 target_in [3:0] $end
$var reg 8 4 data_in [7:0] $end
$var reg 1 5 valid_out $end
$var reg 8 6 data_out [7:0] $end
$var reg 1 - clk $end
$var reg 1 . rst_n $end
$var reg 4 7 source_out [3:0] $end
$var reg 4 8 target_out [3:0] $end
$upscope $end


$scope module port2 $end
$var reg 1 9 valid_in $end
$var reg 4 : source_in [3:0] $end
$var reg 4 ; target_in [3:0] $end
$var reg 8 < data_in [7:0] $end
$var reg 1 = valid_out $end
$var reg 8 > data_out [7:0] $end
$var reg 1 - clk $end
$var reg 1 . rst_n $end
$var reg 4 ? source_out [3:0] $end
$var reg 4 @ target_out [3:0] $end
$upscope $end


$scope module port3 $end
$var reg 1 A valid_in $end
$var reg 4 B source_in [3:0] $end
$var reg 4 C target_in [3:0] $end
$var reg 8 D data_in [7:0] $end
$var reg 1 E valid_out $end
$var reg 8 F data_out [7:0] $end
$var reg 1 - clk $end
$var reg 1 . rst_n $end
$var reg 4 G source_out [3:0] $end
$var reg 4 H target_out [3:0] $end
$upscope $end


$scope module dut $end
$var reg 1 ! clk $end
$var reg 1 " rst_n $end
$var reg 4 I grant [3:0] $end
$var reg 2 J mux_sel0 [1:0] $end
$var reg 2 K mux_sel1 [1:0] $end
$var reg 2 L mux_sel2 [1:0] $end
$var reg 2 M mux_sel3 [1:0] $end
$var reg 4 N port0_dst [3:0] $end
$var reg 4 O port1_dst [3:0] $end
$var reg 4 P port2_dst [3:0] $end
$var reg 4 Q port3_dst [3:0] $end
$var reg 1 R arb_active $end
$var reg 1 S active0 $end
$var reg 1 T active1 $end
$var reg 1 U active2 $end
$var reg 1 V active3 $end
$var reg 16 W fifo_data_out0 [15:0] $end
$var reg 16 X fifo_data_out1 [15:0] $end
$var reg 16 Y fifo_data_out2 [15:0] $end
$var reg 16 Z fifo_data_out3 [15:0] $end
$var reg 4 [ port_reqs [3:0] $end

$scope module port0_i $end
$var reg 1 \ clk $end
$var reg 1 ] rst_n $end
$var reg 1 ' valid_in $end
$var reg 4 ^ source_in [3:0] $end
$var reg 4 _ target_in [3:0] $end
$var reg 8 ` data_in [7:0] $end
$var reg 1 a grant $end
$var reg 4 N pkt_dst [3:0] $end
$var reg 16 W fifo_data_out [15:0] $end
$var reg 1 b port_req $end
$var reg 1 c fifo_full $end
$var reg 1 d fifo_empty $end
$var reg 8 e header_out [7:0] $end
$var reg 2 f current_state [1:0] $end
$var reg 2 g next_state [1:0] $end
$var reg 2 h Packet_Type [1:0] $end
$var reg 2 i pkt_type [1:0] $end
$var reg 1 j pkt_valid $end
$var reg 1 k read_en_fifo $end

$scope module parser_inst $end
$var reg 4 l source [3:0] $end
$var reg 4 m target [3:0] $end
$var reg 2 i pkt_type [1:0] $end
$var reg 1 j pkt_valid $end
$upscope $end


$scope module port_fifo $end
$var reg 1 ] rst_n $end
$var reg 1 \ clk $end
$var reg 16 n data_in [15:0] $end
$var reg 1 ' wr_en $end
$var reg 1 c fifo_full $end
$var reg 8 e header_out [7:0] $end
$var reg 1 k rd_en $end
$var reg 16 W data_out [15:0] $end
$var reg 1 d fifo_empty $end
$var reg 3 o wr_ptr [2:0] $end
$var reg 3 p rd_ptr [2:0] $end
$var reg 4 q fifo_count [3:0] $end
$upscope $end

$upscope $end


$scope module port1_i $end
$var reg 1 \ clk $end
$var reg 1 ] rst_n $end
$var reg 1 1 valid_in $end
$var reg 4 r source_in [3:0] $end
$var reg 4 s target_in [3:0] $end
$var reg 8 t data_in [7:0] $end
$var reg 1 u grant $end
$var reg 4 O pkt_dst [3:0] $end
$var reg 16 X fifo_data_out [15:0] $end
$var reg 1 v port_req $end
$var reg 1 w fifo_full $end
$var reg 1 x fifo_empty $end
$var reg 8 y header_out [7:0] $end
$var reg 2 z current_state [1:0] $end
$var reg 2 { next_state [1:0] $end
$var reg 2 | Packet_Type [1:0] $end
$var reg 2 } pkt_type [1:0] $end
$var reg 1 ~ pkt_valid $end
$var reg 1 "! read_en_fifo $end

$scope module parser_inst $end
$var reg 4 "" source [3:0] $end
$var reg 4 "# target [3:0] $end
$var reg 2 } pkt_type [1:0] $end
$var reg 1 ~ pkt_valid $end
$upscope $end


$scope module port_fifo $end
$var reg 1 ] rst_n $end
$var reg 1 \ clk $end
$var reg 16 "$ data_in [15:0] $end
$var reg 1 1 wr_en $end
$var reg 1 w fifo_full $end
$var reg 8 y header_out [7:0] $end
$var reg 1 "! rd_en $end
$var reg 16 X data_out [15:0] $end
$var reg 1 x fifo_empty $end
$var reg 3 "% wr_ptr [2:0] $end
$var reg 3 "& rd_ptr [2:0] $end
$var reg 4 "' fifo_count [3:0] $end
$upscope $end

$upscope $end


$scope module port2_i $end
$var reg 1 \ clk $end
$var reg 1 ] rst_n $end
$var reg 1 9 valid_in $end
$var reg 4 "( source_in [3:0] $end
$var reg 4 ") target_in [3:0] $end
$var reg 8 "* data_in [7:0] $end
$var reg 1 "+ grant $end
$var reg 4 P pkt_dst [3:0] $end
$var reg 16 Y fifo_data_out [15:0] $end
$var reg 1 ", port_req $end
$var reg 1 "- fifo_full $end
$var reg 1 ". fifo_empty $end
$var reg 8 "/ header_out [7:0] $end
$var reg 2 "0 current_state [1:0] $end
$var reg 2 "1 next_state [1:0] $end
$var reg 2 "2 Packet_Type [1:0] $end
$var reg 2 "3 pkt_type [1:0] $end
$var reg 1 "4 pkt_valid $end
$var reg 1 "5 read_en_fifo $end

$scope module parser_inst $end
$var reg 4 "6 source [3:0] $end
$var reg 4 "7 target [3:0] $end
$var reg 2 "3 pkt_type [1:0] $end
$var reg 1 "4 pkt_valid $end
$upscope $end


$scope module port_fifo $end
$var reg 1 ] rst_n $end
$var reg 1 \ clk $end
$var reg 16 "8 data_in [15:0] $end
$var reg 1 9 wr_en $end
$var reg 1 "- fifo_full $end
$var reg 8 "/ header_out [7:0] $end
$var reg 1 "5 rd_en $end
$var reg 16 Y data_out [15:0] $end
$var reg 1 ". fifo_empty $end
$var reg 3 "9 wr_ptr [2:0] $end
$var reg 3 ": rd_ptr [2:0] $end
$var reg 4 "; fifo_count [3:0] $end
$upscope $end

$upscope $end


$scope module port3_i $end
$var reg 1 \ clk $end
$var reg 1 ] rst_n $end
$var reg 1 A valid_in $end
$var reg 4 "< source_in [3:0] $end
$var reg 4 "= target_in [3:0] $end
$var reg 8 "> data_in [7:0] $end
$var reg 1 "? grant $end
$var reg 4 Q pkt_dst [3:0] $end
$var reg 16 Z fifo_data_out [15:0] $end
$var reg 1 "@ port_req $end
$var reg 1 "A fifo_full $end
$var reg 1 "B fifo_empty $end
$var reg 8 "C header_out [7:0] $end
$var reg 2 "D current_state [1:0] $end
$var reg 2 "E next_state [1:0] $end
$var reg 2 "F Packet_Type [1:0] $end
$var reg 2 "G pkt_type [1:0] $end
$var reg 1 "H pkt_valid $end
$var reg 1 "I read_en_fifo $end

$scope module parser_inst $end
$var reg 4 "J source [3:0] $end
$var reg 4 "K target [3:0] $end
$var reg 2 "G pkt_type [1:0] $end
$var reg 1 "H pkt_valid $end
$upscope $end


$scope module port_fifo $end
$var reg 1 ] rst_n $end
$var reg 1 \ clk $end
$var reg 16 "L data_in [15:0] $end
$var reg 1 A wr_en $end
$var reg 1 "A fifo_full $end
$var reg 8 "C header_out [7:0] $end
$var reg 1 "I rd_en $end
$var reg 16 Z data_out [15:0] $end
$var reg 1 "B fifo_empty $end
$var reg 3 "M wr_ptr [2:0] $end
$var reg 3 "N rd_ptr [2:0] $end
$var reg 4 "O fifo_count [3:0] $end
$upscope $end

$upscope $end


$scope module top_arb_i $end
$var reg 1 ! clk $end
$var reg 1 " rst_n $end
$var reg 4 [ port_reqs [3:0] $end
$var reg 4 N port0_dst [3:0] $end
$var reg 4 O port1_dst [3:0] $end
$var reg 4 P port2_dst [3:0] $end
$var reg 4 Q port3_dst [3:0] $end
$var reg 4 I grant_bus [3:0] $end
$var reg 2 J mux_sel0 [1:0] $end
$var reg 2 K mux_sel1 [1:0] $end
$var reg 2 L mux_sel2 [1:0] $end
$var reg 2 M mux_sel3 [1:0] $end
$var reg 1 S active0 $end
$var reg 1 T active1 $end
$var reg 1 U active2 $end
$var reg 1 V active3 $end
$var reg 2 "P ptr0 [1:0] $end
$var reg 2 "Q ptr1 [1:0] $end
$var reg 2 "R ptr2 [1:0] $end
$var reg 2 "S ptr3 [1:0] $end
$var reg 4 "T win_out0 [3:0] $end
$var reg 4 "U win_out1 [3:0] $end
$var reg 4 "V win_out2 [3:0] $end
$var reg 4 "W win_out3 [3:0] $end
$var reg 4 "X reqs_out0 [3:0] $end
$var reg 4 "Y reqs_out1 [3:0] $end
$var reg 4 "Z reqs_out2 [3:0] $end
$var reg 4 "[ reqs_out3 [3:0] $end
$upscope $end


$scope module mux0_i $end
$var reg 2 J mux_sel [1:0] $end
$var reg 16 W data_in0 [15:0] $end
$var reg 16 X data_in1 [15:0] $end
$var reg 16 Y data_in2 [15:0] $end
$var reg 16 Z data_in3 [15:0] $end
$var reg 1 "\ arb_active $end
$var reg 8 "] data_out [7:0] $end
$var reg 1 "^ valid_out $end
$upscope $end


$scope module mux1_i $end
$var reg 2 K mux_sel [1:0] $end
$var reg 16 W data_in0 [15:0] $end
$var reg 16 X data_in1 [15:0] $end
$var reg 16 Y data_in2 [15:0] $end
$var reg 16 Z data_in3 [15:0] $end
$var reg 1 "_ arb_active $end
$var reg 8 "` data_out [7:0] $end
$var reg 1 "a valid_out $end
$upscope $end


$scope module mux2_i $end
$var reg 2 L mux_sel [1:0] $end
$var reg 16 W data_in0 [15:0] $end
$var reg 16 X data_in1 [15:0] $end
$var reg 16 Y data_in2 [15:0] $end
$var reg 16 Z data_in3 [15:0] $end
$var reg 1 "b arb_active $end
$var reg 8 "c data_out [7:0] $end
$var reg 1 "d valid_out $end
$upscope $end


$scope module mux3_i $end
$var reg 2 M mux_sel [1:0] $end
$var reg 16 W data_in0 [15:0] $end
$var reg 16 X data_in1 [15:0] $end
$var reg 16 Y data_in2 [15:0] $end
$var reg 16 Z data_in3 [15:0] $end
$var reg 1 "e arb_active $end
$var reg 8 "f data_out [7:0] $end
$var reg 1 "g valid_out $end
$upscope $end

$upscope $end

$upscope $end

$enddefinitions $end

#0
$dumpvars
0S
0T
0U
0V
0!
0"
bxxxxxxxx &
bxxxx $
bxxxx %
b0000000000000000 W
b0000000000000000 X
b0000000000000000 Y
b0000000000000000 Z
b0000 I
bxx J
bxx K
bxx L
bxx M
b0000 N
b0000 O
b0000 P
b0000 Q
b0000 [
b00 "P
b00 "Q
b00 "R
b00 "S
b0000 "X
b0000 "Y
b0000 "Z
b0000 "[
b0000 "T
b0000 "U
b0000 "V
b0000 "W
b00000000000000000000000000000000 #
b00000000 ,
b00000000 *
b0000 )
b0000 (
b00000000 6
bxxxxxxxx 4
bxxxx 3
bxxxx 2
b00000000 >
bxxxxxxxx <
bxxxx ;
bxxxx :
b00000000 F
bxxxxxxxx D
bxxxx C
bxxxx B
1d
0c
0j
0b
0k
b00 h
b00 f
b00000000 `
b0000 q
b00000000 e
b00 g
b00 i
b000 p
b0000 ^
b0000 _
bxxxxxxxxxxxxxxxx n
bxxxx m
bxxxx l
b000 o
1x
0w
0~
0v
0"!
b00 |
b00 z
bxxxxxxxx t
b0000 "'
b00000000 y
b00 {
b00 }
b000 "&
bxxxx r
bxxxx s
bxxxxxxxxxxxxxxxx "$
bxxxx "#
bxxxx ""
b000 "%
1".
0"-
0"4
0",
0"5
b00 "2
b00 "0
bxxxxxxxx "*
b0000 ";
b00000000 "/
b00 "1
b00 "3
b000 ":
bxxxx "(
bxxxx ")
bxxxxxxxxxxxxxxxx "8
bxxxx "7
bxxxx "6
b000 "9
1"B
0"A
0"H
0"@
0"I
b00 "F
b00 "D
bxxxxxxxx ">
b0000 "O
b00000000 "C
b00 "E
b00 "G
b000 "N
bxxxx "<
bxxxx "=
bxxxxxxxxxxxxxxxx "L
bxxxx "K
bxxxx "J
b000 "M
0"^
b00000000 "]
0"a
b00000000 "`
0"d
b00000000 "c
0"g
b00000000 "f
xR
0\
0]
0a
0u
0"+
0"?
0"\
0"_
0"b
0"e
0-
0.
0'
0+
01
05
09
0=
0A
0E
$end
bxxxxxxxxxxxx0000 n
bxxxxxxxx00000000 n
b0000000000000000 n
b0000 m
b0000 l
b0000 "#
b0000 ""
b0000 "7
b0000 "6
b0000 "K
b0000 "J
#5
1!
1\
1-
#10
0!
0\
0-
#15
1!
1\
1-
#20
0!
0\
0-
#25
1!
1\
1-
#30
0!
0\
0-
#35
1!
1\
1-
#40
0!
0\
0-
#45
1!
1\
1-
1"
1.
1]
b00 J
b00 K
b00 L
b00 M
#50
0!
0\
0-
#55
1!
1\
1-
#60
0!
0\
0-
#65
1!
1\
1-
#70
0!
0\
0-
#75
1!
1\
1-
#80
0!
0\
0-
#85
1!
1\
1-
#90
0!
0\
0-
#95
1!
1\
1-
b0001 $
b0010 %
b10100001 &
1'
b0001 (
b0001 ^
b0000000000000001 n
b0010 )
b0010 _
b0000000000100001 n
b10100001 *
b10100001 `
b1010000100100001 n
#100
0!
0\
0-
#105
1!
1\
1-
0'
b001 o
b0001 q
0d
b00100001 e
b0010 m
b0001 l
b0010 N
b01 g
b0001 "Y
b01 i
1j
b0001 "U
#110
0!
0\
0-
#115
1!
1\
1-
b01 f
b10 g
#120
0!
0\
0-
#125
1!
1\
1-
b10 f
b01 h
1b
b0001 [
b0001 I
1a
b11 g
1k
#130
0!
0\
0-
#135
1!
1\
1-
b1010000100100001 W
b001 p
b0000 q
1d
b11 f
1T
1"_
b01 "Q
b10100001 "`
b10100001 6
1"a
15
b00000000 e
b0000 m
b0000 l
b0000 N
b00 g
0b
0k
b0000 I
0a
b0000 "Y
b00 i
0j
b0000 [
b0000 "U
#140
0!
0\
0-
#145
1!
1\
1-
b00 f
0T
0"_
b00000000 "`
b00000000 6
0"a
05
#150
0!
0\
0-
#155
1!
1\
1-
#160
0!
0\
0-
#165
1!
1\
1-
#170
0!
0\
0-
#175
1!
1\
1-
#180
0!
0\
0-
#185
1!
1\
1-
#190
0!
0\
0-
#195
1!
1\
1-
#200
0!
0\
0-
#205
1!
1\
1-
#210
0!
0\
0-
#215
1!
1\
1-
#220
0!
0\
0-
#225
1!
1\
1-
#230
0!
0\
0-
#235
1!
1\
1-
#240
0!
0\
0-
#245
1!
1\
1-
#250
0!
0\
0-
#255
1!
1\
1-
b1100 %
b10100010 &
1'
b1100 )
b1100 _
b1010000111000001 n
b10100010 *
b10100010 `
b1010001011000001 n
#260
0!
0\
0-
#265
1!
1\
1-
0'
b010 o
b0001 q
0d
b11000001 e
b1100 m
b0001 l
b1100 N
b01 g
b0001 "Z
b0001 "[
b10 i
1j
b0001 "V
b0001 "W
#270
0!
0\
0-
#275
1!
1\
1-
b01 f
b10 g
#280
0!
0\
0-
#285
1!
1\
1-
b10 f
b10 h
1b
b0001 [
b0001 I
1a
b11 g
1k
#290
0!
0\
0-
#295
1!
1\
1-
b1010001011000001 W
b010 p
b0000 q
1d
b11 f
1U
1"b
1V
1"e
b01 "R
b01 "S
b10100010 "f
b10100010 F
1"g
1E
b10100010 "c
b10100010 >
1"d
1=
b00000000 e
b0000 m
b0000 l
b0000 N
b00 g
0b
0k
b0000 I
0a
b0000 "Z
b0000 "[
b00 i
0j
b0000 [
b0000 "V
b0000 "W
#300
0!
0\
0-
#305
1!
1\
1-
b00 f
0U
0"b
0V
0"e
b00000000 "c
b00000000 >
0"d
0=
b00000000 "f
b00000000 F
0"g
0E
#310
0!
0\
0-
#315
1!
1\
1-
#320
0!
0\
0-
#325
1!
1\
1-
#330
0!
0\
0-
#335
1!
1\
1-
#340
0!
0\
0-
#345
1!
1\
1-
#350
0!
0\
0-
#355
1!
1\
1-
#360
0!
0\
0-
#365
1!
1\
1-
#370
0!
0\
0-
#375
1!
1\
1-
#380
0!
0\
0-
#385
1!
1\
1-
#390
0!
0\
0-
#395
1!
1\
1-
#400
0!
0\
0-
#405
1!
1\
1-
#410
0!
0\
0-
#415
1!
1\
1-
b1111 %
b10100011 &
1'
b1111 )
b1111 _
b1010001011110001 n
b10100011 *
b10100011 `
b1010001111110001 n
#420
0!
0\
0-
#425
1!
1\
1-
0'
b011 o
b0001 q
0d
b11110001 e
b1111 m
b0001 l
b1111 N
b01 g
b0001 "X
b0001 "Y
b0001 "Z
b0001 "[
b11 i
1j
b0001 "T
b0001 "U
b0001 "V
b0001 "W
#430
0!
0\
0-
#435
1!
1\
1-
b01 f
b10 g
#440
0!
0\
0-
#445
1!
1\
1-
b10 f
b11 h
1b
b0001 [
b0001 I
1a
b11 g
1k
#450
0!
0\
0-
#455
1!
1\
1-
b1010001111110001 W
b011 p
b0000 q
1d
b11 f
1S
1"\
1T
1"_
1U
1"b
1V
1"e
b01 "P
b10100011 "f
b10100011 F
1"g
1E
b10100011 "c
b10100011 >
1"d
1=
b10100011 "`
b10100011 6
1"a
15
b10100011 "]
b10100011 ,
1"^
1+
b00000000 e
b0000 m
b0000 l
b0000 N
b00 g
0b
0k
b0000 I
0a
b0000 "X
b0000 "Y
b0000 "Z
b0000 "[
b00 i
0j
b0000 [
b0000 "T
b0000 "U
b0000 "V
b0000 "W
#460
0!
0\
0-
#465
1!
1\
1-
b00 f
0S
0"\
0T
0"_
0U
0"b
0V
0"e
b00000000 "]
b00000000 ,
0"^
0+
b00000000 "`
b00000000 6
0"a
05
b00000000 "c
b00000000 >
0"d
0=
b00000000 "f
b00000000 F
0"g
0E
#470
0!
0\
0-
#475
1!
1\
1-
#480
0!
0\
0-
#485
1!
1\
1-
#490
0!
0\
0-
#495
1!
1\
1-
#500
0!
0\
0-
#505
1!
1\
1-
#510
0!
0\
0-
#515
1!
1\
1-
#520
0!
0\
0-
#525
1!
1\
1-
#530
0!
0\
0-
#535
1!
1\
1-
#540
0!
0\
0-
#545
1!
1\
1-
#550
0!
0\
0-
#555
1!
1\
1-
#560
0!
0\
0-
#565
1!
1\
1-
#570
0!
0\
0-
#575
1!
1\
1-
b00000000000000000000000000000001 #
b0010 $
b1000 %
b10110001 &
11
b0010 2
b0010 r
bxxxxxxxxxxxx0010 "$
b1000 3
b1000 s
bxxxxxxxx10000010 "$
b10110001 4
b10110001 t
b1011000110000010 "$
#580
0!
0\
0-
#585
1!
1\
1-
01
b001 "%
b0001 "'
0x
b10000010 y
b1000 "#
b0010 ""
b1000 O
b01 {
b0010 "[
b01 }
1~
b0010 "W
#590
0!
0\
0-
#595
1!
1\
1-
b01 z
b01 M
b10 {
#600
0!
0\
0-
#605
1!
1\
1-
b10 z
b01 |
1v
b0010 [
b0010 I
1u
b11 {
1"!
#610
0!
0\
0-
#615
1!
1\
1-
b1011000110000010 X
b001 "&
b0000 "'
1x
b11 z
1V
1"e
b10 "S
b10110001 "f
b10110001 F
1"g
1E
b00000000 y
b0000 "#
b0000 ""
b0000 O
b00 {
0v
0"!
b0000 I
0u
b0000 "[
b00 }
0~
b0000 [
b0000 "W
#620
0!
0\
0-
#625
1!
1\
1-
b00 z
0V
0"e
b00 M
b00000000 "f
b00000000 F
0"g
0E
#630
0!
0\
0-
#635
1!
1\
1-
#640
0!
0\
0-
#645
1!
1\
1-
#650
0!
0\
0-
#655
1!
1\
1-
#660
0!
0\
0-
#665
1!
1\
1-
#670
0!
0\
0-
#675
1!
1\
1-
#680
0!
0\
0-
#685
1!
1\
1-
#690
0!
0\
0-
#695
1!
1\
1-
#700
0!
0\
0-
#705
1!
1\
1-
#710
0!
0\
0-
#715
1!
1\
1-
#720
0!
0\
0-
#725
1!
1\
1-
#730
0!
0\
0-
#735
1!
1\
1-
b0101 %
b10110010 &
11
b0101 3
b0101 s
b1011000101010010 "$
b10110010 4
b10110010 t
b1011001001010010 "$
#740
0!
0\
0-
#745
1!
1\
1-
01
b010 "%
b0001 "'
0x
b01010010 y
b0101 "#
b0010 ""
b0101 O
b01 {
b0010 "X
b0010 "Z
b10 }
1~
b0010 "T
b0010 "V
#750
0!
0\
0-
#755
1!
1\
1-
b01 z
b01 J
b01 L
b10 {
#760
0!
0\
0-
#765
1!
1\
1-
b10 z
b10 |
1v
b0010 [
b0010 I
1u
b11 {
1"!
#770
0!
0\
0-
#775
1!
1\
1-
b1011001001010010 X
b010 "&
b0000 "'
1x
b11 z
1S
1"\
1U
1"b
b10 "P
b10 "R
b10110010 "c
b10110010 >
1"d
1=
b10110010 "]
b10110010 ,
1"^
1+
b00000000 y
b0000 "#
b0000 ""
b0000 O
b00 {
0v
0"!
b0000 I
0u
b0000 "X
b0000 "Z
b00 }
0~
b0000 [
b0000 "T
b0000 "V
#780
0!
0\
0-
#785
1!
1\
1-
b00 z
0S
0"\
0U
0"b
b00 J
b00 L
b00000000 "]
b00000000 ,
0"^
0+
b00000000 "c
b00000000 >
0"d
0=
#790
0!
0\
0-
#795
1!
1\
1-
#800
0!
0\
0-
#805
1!
1\
1-
#810
0!
0\
0-
#815
1!
1\
1-
#820
0!
0\
0-
#825
1!
1\
1-
#830
0!
0\
0-
#835
1!
1\
1-
#840
0!
0\
0-
#845
1!
1\
1-
#850
0!
0\
0-
#855
1!
1\
1-
#860
0!
0\
0-
#865
1!
1\
1-
#870
0!
0\
0-
#875
1!
1\
1-
#880
0!
0\
0-
#885
1!
1\
1-
#890
0!
0\
0-
#895
1!
1\
1-
b1111 %
b10110011 &
11
b1111 3
b1111 s
b1011001011110010 "$
b10110011 4
b10110011 t
b1011001111110010 "$
#900
0!
0\
0-
#905
1!
1\
1-
01
b011 "%
b0001 "'
0x
b11110010 y
b1111 "#
b0010 ""
b1111 O
b01 {
b0010 "X
b0010 "Y
b0010 "Z
b0010 "[
b11 }
1~
b0010 "T
b0010 "U
b0010 "V
b0010 "W
#910
0!
0\
0-
#915
1!
1\
1-
b01 z
b01 J
b01 K
b01 L
b01 M
b10 {
#920
0!
0\
0-
#925
1!
1\
1-
b10 z
b11 |
1v
b0010 [
b0010 I
1u
b11 {
1"!
#930
0!
0\
0-
#935
1!
1\
1-
b1011001111110010 X
b011 "&
b0000 "'
1x
b11 z
1S
1"\
1T
1"_
1U
1"b
1V
1"e
b10 "Q
b10110011 "f
b10110011 F
1"g
1E
b10110011 "c
b10110011 >
1"d
1=
b10110011 "`
b10110011 6
1"a
15
b10110011 "]
b10110011 ,
1"^
1+
b00000000 y
b0000 "#
b0000 ""
b0000 O
b00 {
0v
0"!
b0000 I
0u
b0000 "X
b0000 "Y
b0000 "Z
b0000 "[
b00 }
0~
b0000 [
b0000 "T
b0000 "U
b0000 "V
b0000 "W
#940
0!
0\
0-
#945
1!
1\
1-
b00 z
0S
0"\
0T
0"_
0U
0"b
0V
0"e
b00 J
b00 K
b00 L
b00 M
b00000000 "]
b00000000 ,
0"^
0+
b00000000 "`
b00000000 6
0"a
05
b00000000 "c
b00000000 >
0"d
0=
b00000000 "f
b00000000 F
0"g
0E
#950
0!
0\
0-
#955
1!
1\
1-
#960
0!
0\
0-
#965
1!
1\
1-
#970
0!
0\
0-
#975
1!
1\
1-
#980
0!
0\
0-
#985
1!
1\
1-
#990
0!
0\
0-
#995
1!
1\
1-
#1000
0!
0\
0-
#1005
1!
1\
1-
#1010
0!
0\
0-
#1015
1!
1\
1-
#1020
0!
0\
0-
#1025
1!
1\
1-
#1030
0!
0\
0-
#1035
1!
1\
1-
#1040
0!
0\
0-
#1045
1!
1\
1-
#1050
0!
0\
0-
#1055
1!
1\
1-
b00000000000000000000000000000010 #
b0100 $
b0001 %
b11000001 &
19
b0100 :
b0100 "(
bxxxxxxxxxxxx0100 "8
b0001 ;
b0001 ")
bxxxxxxxx00010100 "8
b11000001 <
b11000001 "*
b1100000100010100 "8
#1060
0!
0\
0-
#1065
1!
1\
1-
09
b001 "9
b0001 ";
0".
b00010100 "/
b0001 "7
b0100 "6
b0001 P
b01 "1
b0100 "X
b01 "3
1"4
b0100 "T
#1070
0!
0\
0-
#1075
1!
1\
1-
b01 "0
b10 J
b10 "1
#1080
0!
0\
0-
#1085
1!
1\
1-
b10 "0
b01 "2
1",
b0100 [
b0100 I
1"+
b11 "1
1"5
#1090
0!
0\
0-
#1095
1!
1\
1-
b1100000100010100 Y
b001 ":
b0000 ";
1".
b11 "0
1S
1"\
b11 "P
b11000001 "]
b11000001 ,
1"^
1+
b00000000 "/
b0000 "7
b0000 "6
b0000 P
b00 "1
0",
0"5
b0000 I
0"+
b0000 "X
b00 "3
0"4
b0000 [
b0000 "T
#1100
0!
0\
0-
#1105
1!
1\
1-
b00 "0
0S
0"\
b00 J
b00000000 "]
b00000000 ,
0"^
0+
#1110
0!
0\
0-
#1115
1!
1\
1-
#1120
0!
0\
0-
#1125
1!
1\
1-
#1130
0!
0\
0-
#1135
1!
1\
1-
#1140
0!
0\
0-
#1145
1!
1\
1-
#1150
0!
0\
0-
#1155
1!
1\
1-
#1160
0!
0\
0-
#1165
1!
1\
1-
#1170
0!
0\
0-
#1175
1!
1\
1-
#1180
0!
0\
0-
#1185
1!
1\
1-
#1190
0!
0\
0-
#1195
1!
1\
1-
#1200
0!
0\
0-
#1205
1!
1\
1-
#1210
0!
0\
0-
#1215
1!
1\
1-
b1010 %
b11000010 &
19
b1010 ;
b1010 ")
b1100000110100100 "8
b11000010 <
b11000010 "*
b1100001010100100 "8
#1220
0!
0\
0-
#1225
1!
1\
1-
09
b010 "9
b0001 ";
0".
b10100100 "/
b1010 "7
b0100 "6
b1010 P
b01 "1
b0100 "Y
b0100 "[
b10 "3
1"4
b0100 "U
b0100 "W
#1230
0!
0\
0-
#1235
1!
1\
1-
b01 "0
b10 K
b10 M
b10 "1
#1240
0!
0\
0-
#1245
1!
1\
1-
b10 "0
b10 "2
1",
b0100 [
b0100 I
1"+
b11 "1
1"5
#1250
0!
0\
0-
#1255
1!
1\
1-
b1100001010100100 Y
b010 ":
b0000 ";
1".
b11 "0
1T
1"_
1V
1"e
b11 "Q
b11 "S
b11000010 "f
b11000010 F
1"g
1E
b11000010 "`
b11000010 6
1"a
15
b00000000 "/
b0000 "7
b0000 "6
b0000 P
b00 "1
0",
0"5
b0000 I
0"+
b0000 "Y
b0000 "[
b00 "3
0"4
b0000 [
b0000 "U
b0000 "W
#1260
0!
0\
0-
#1265
1!
1\
1-
b00 "0
0T
0"_
0V
0"e
b00 K
b00 M
b00000000 "`
b00000000 6
0"a
05
b00000000 "f
b00000000 F
0"g
0E
#1270
0!
0\
0-
#1275
1!
1\
1-
#1280
0!
0\
0-
#1285
1!
1\
1-
#1290
0!
0\
0-
#1295
1!
1\
1-
#1300
0!
0\
0-
#1305
1!
1\
1-
#1310
0!
0\
0-
#1315
1!
1\
1-
#1320
0!
0\
0-
#1325
1!
1\
1-
#1330
0!
0\
0-
#1335
1!
1\
1-
#1340
0!
0\
0-
#1345
1!
1\
1-
#1350
0!
0\
0-
#1355
1!
1\
1-
#1360
0!
0\
0-
#1365
1!
1\
1-
#1370
0!
0\
0-
#1375
1!
1\
1-
b1111 %
b11000011 &
19
b1111 ;
b1111 ")
b1100001011110100 "8
b11000011 <
b11000011 "*
b1100001111110100 "8
#1380
0!
0\
0-
#1385
1!
1\
1-
09
b011 "9
b0001 ";
0".
b11110100 "/
b1111 "7
b0100 "6
b1111 P
b01 "1
b0100 "X
b0100 "Y
b0100 "Z
b0100 "[
b11 "3
1"4
b0100 "T
b0100 "U
b0100 "V
b0100 "W
#1390
0!
0\
0-
#1395
1!
1\
1-
b01 "0
b10 J
b10 K
b10 L
b10 M
b10 "1
#1400
0!
0\
0-
#1405
1!
1\
1-
b10 "0
b11 "2
1",
b0100 [
b0100 I
1"+
b11 "1
1"5
#1410
0!
0\
0-
#1415
1!
1\
1-
b1100001111110100 Y
b011 ":
b0000 ";
1".
b11 "0
1S
1"\
1T
1"_
1U
1"b
1V
1"e
b11 "R
b11000011 "f
b11000011 F
1"g
1E
b11000011 "c
b11000011 >
1"d
1=
b11000011 "`
b11000011 6
1"a
15
b11000011 "]
b11000011 ,
1"^
1+
b00000000 "/
b0000 "7
b0000 "6
b0000 P
b00 "1
0",
0"5
b0000 I
0"+
b0000 "X
b0000 "Y
b0000 "Z
b0000 "[
b00 "3
0"4
b0000 [
b0000 "T
b0000 "U
b0000 "V
b0000 "W
#1420
0!
0\
0-
#1425
1!
1\
1-
b00 "0
0S
0"\
0T
0"_
0U
0"b
0V
0"e
b00 J
b00 K
b00 L
b00 M
b00000000 "]
b00000000 ,
0"^
0+
b00000000 "`
b00000000 6
0"a
05
b00000000 "c
b00000000 >
0"d
0=
b00000000 "f
b00000000 F
0"g
0E
#1430
0!
0\
0-
#1435
1!
1\
1-
#1440
0!
0\
0-
#1445
1!
1\
1-
#1450
0!
0\
0-
#1455
1!
1\
1-
#1460
0!
0\
0-
#1465
1!
1\
1-
#1470
0!
0\
0-
#1475
1!
1\
1-
#1480
0!
0\
0-
