switch_overflow.vcd
$date
	Sat Dec  6 14:07:46 2025
$end

$version
	Synopsys VCS version X-2025.06-1_Full64
$end

$timescale
	1s
$end

$comment Csum: 1 0a0788cf6d84cb55 $end


$scope module switch_overflow_tb $end
$var reg 1 ! clk $end
$var reg 1 " rst_n $end

$scope begin unnamed$$_0 $end
$var reg 32 # i [31:0] $end
$upscope $end


$scope begin unnamed$$_vcs_1 $end
$upscope $end


$scope begin unnamed$$_vcs_2 $end
$upscope $end


$scope module port0 $end
$var reg 1 $ valid_in $end
$var reg 4 % source_in [3:0] $end
$var reg 4 & target_in [3:0] $end
$var reg 8 ' data_in [7:0] $end
$var reg 1 ( valid_out $end
$var reg 8 ) data_out [7:0] $end
$var reg 1 * clk $end
$var reg 1 + rst_n $end
$var reg 4 , source_out [3:0] $end
$var reg 4 - target_out [3:0] $end
$upscope $end


$scope module port1 $end
$var reg 1 . valid_in $end
$var reg 4 / source_in [3:0] $end
$var reg 4 0 target_in [3:0] $end
$var reg 8 1 data_in [7:0] $end
$var reg 1 2 valid_out $end
$var reg 8 3 data_out [7:0] $end
$var reg 1 * clk $end
$var reg 1 + rst_n $end
$var reg 4 4 source_out [3:0] $end
$var reg 4 5 target_out [3:0] $end
$upscope $end


$scope module port2 $end
$var reg 1 6 valid_in $end
$var reg 4 7 source_in [3:0] $end
$var reg 4 8 target_in [3:0] $end
$var reg 8 9 data_in [7:0] $end
$var reg 1 : valid_out $end
$var reg 8 ; data_out [7:0] $end
$var reg 1 * clk $end
$var reg 1 + rst_n $end
$var reg 4 < source_out [3:0] $end
$var reg 4 = target_out [3:0] $end
$upscope $end


$scope module port3 $end
$var reg 1 > valid_in $end
$var reg 4 ? source_in [3:0] $end
$var reg 4 @ target_in [3:0] $end
$var reg 8 A data_in [7:0] $end
$var reg 1 B valid_out $end
$var reg 8 C data_out [7:0] $end
$var reg 1 * clk $end
$var reg 1 + rst_n $end
$var reg 4 D source_out [3:0] $end
$var reg 4 E target_out [3:0] $end
$upscope $end


$scope module dut $end
$var reg 1 ! clk $end
$var reg 1 " rst_n $end
$var reg 4 F grant [3:0] $end
$var reg 2 G mux_sel0 [1:0] $end
$var reg 2 H mux_sel1 [1:0] $end
$var reg 2 I mux_sel2 [1:0] $end
$var reg 2 J mux_sel3 [1:0] $end
$var reg 4 K port0_dst [3:0] $end
$var reg 4 L port1_dst [3:0] $end
$var reg 4 M port2_dst [3:0] $end
$var reg 4 N port3_dst [3:0] $end
$var reg 1 O active0 $end
$var reg 1 P active1 $end
$var reg 1 Q active2 $end
$var reg 1 R active3 $end
$var reg 16 S fifo_data_out0 [15:0] $end
$var reg 16 T fifo_data_out1 [15:0] $end
$var reg 16 U fifo_data_out2 [15:0] $end
$var reg 16 V fifo_data_out3 [15:0] $end
$var reg 4 W port_reqs [3:0] $end

$scope module port0_i $end
$var reg 1 X fifo_full $end
$var reg 1 Y clk $end
$var reg 1 Z rst_n $end
$var reg 1 $ valid_in $end
$var reg 4 [ source_in [3:0] $end
$var reg 4 \ target_in [3:0] $end
$var reg 8 ] data_in [7:0] $end
$var reg 1 ^ grant $end
$var reg 4 K pkt_dst [3:0] $end
$var reg 16 S fifo_data_out [15:0] $end
$var reg 1 _ port_req $end
$var reg 1 ` fifo_empty $end
$var reg 8 a header_out [7:0] $end
$var reg 2 b current_state [1:0] $end
$var reg 2 c next_state [1:0] $end
$var reg 2 d Packet_Type [1:0] $end
$var reg 2 e pkt_type [1:0] $end
$var reg 1 f pkt_valid $end
$var reg 1 g read_en_fifo $end

$scope module parser_inst $end
$var reg 4 h source [3:0] $end
$var reg 4 i target [3:0] $end
$var reg 2 e pkt_type [1:0] $end
$var reg 1 f pkt_valid $end
$upscope $end


$scope module port_fifo $end
$var reg 1 Z rst_n $end
$var reg 1 Y clk $end
$var reg 16 j data_in [15:0] $end
$var reg 1 $ wr_en $end
$var reg 1 X fifo_full $end
$var reg 8 a header_out [7:0] $end
$var reg 1 g rd_en $end
$var reg 16 S data_out [15:0] $end
$var reg 1 ` fifo_empty $end
$var reg 3 k wr_ptr [2:0] $end
$var reg 3 l rd_ptr [2:0] $end
$var reg 4 m fifo_count [3:0] $end
$upscope $end

$upscope $end


$scope module port1_i $end
$var reg 1 n fifo_full $end
$var reg 1 Y clk $end
$var reg 1 Z rst_n $end
$var reg 1 . valid_in $end
$var reg 4 o source_in [3:0] $end
$var reg 4 p target_in [3:0] $end
$var reg 8 q data_in [7:0] $end
$var reg 1 r grant $end
$var reg 4 L pkt_dst [3:0] $end
$var reg 16 T fifo_data_out [15:0] $end
$var reg 1 s port_req $end
$var reg 1 t fifo_empty $end
$var reg 8 u header_out [7:0] $end
$var reg 2 v current_state [1:0] $end
$var reg 2 w next_state [1:0] $end
$var reg 2 x Packet_Type [1:0] $end
$var reg 2 y pkt_type [1:0] $end
$var reg 1 z pkt_valid $end
$var reg 1 { read_en_fifo $end

$scope module parser_inst $end
$var reg 4 | source [3:0] $end
$var reg 4 } target [3:0] $end
$var reg 2 y pkt_type [1:0] $end
$var reg 1 z pkt_valid $end
$upscope $end


$scope module port_fifo $end
$var reg 1 Z rst_n $end
$var reg 1 Y clk $end
$var reg 16 ~ data_in [15:0] $end
$var reg 1 . wr_en $end
$var reg 1 n fifo_full $end
$var reg 8 u header_out [7:0] $end
$var reg 1 { rd_en $end
$var reg 16 T data_out [15:0] $end
$var reg 1 t fifo_empty $end
$var reg 3 "! wr_ptr [2:0] $end
$var reg 3 "" rd_ptr [2:0] $end
$var reg 4 "# fifo_count [3:0] $end
$upscope $end

$upscope $end


$scope module port2_i $end
$var reg 1 "$ fifo_full $end
$var reg 1 Y clk $end
$var reg 1 Z rst_n $end
$var reg 1 6 valid_in $end
$var reg 4 "% source_in [3:0] $end
$var reg 4 "& target_in [3:0] $end
$var reg 8 "' data_in [7:0] $end
$var reg 1 "( grant $end
$var reg 4 M pkt_dst [3:0] $end
$var reg 16 U fifo_data_out [15:0] $end
$var reg 1 ") port_req $end
$var reg 1 "* fifo_empty $end
$var reg 8 "+ header_out [7:0] $end
$var reg 2 ", current_state [1:0] $end
$var reg 2 "- next_state [1:0] $end
$var reg 2 ". Packet_Type [1:0] $end
$var reg 2 "/ pkt_type [1:0] $end
$var reg 1 "0 pkt_valid $end
$var reg 1 "1 read_en_fifo $end

$scope module parser_inst $end
$var reg 4 "2 source [3:0] $end
$var reg 4 "3 target [3:0] $end
$var reg 2 "/ pkt_type [1:0] $end
$var reg 1 "0 pkt_valid $end
$upscope $end


$scope module port_fifo $end
$var reg 1 Z rst_n $end
$var reg 1 Y clk $end
$var reg 16 "4 data_in [15:0] $end
$var reg 1 6 wr_en $end
$var reg 1 "$ fifo_full $end
$var reg 8 "+ header_out [7:0] $end
$var reg 1 "1 rd_en $end
$var reg 16 U data_out [15:0] $end
$var reg 1 "* fifo_empty $end
$var reg 3 "5 wr_ptr [2:0] $end
$var reg 3 "6 rd_ptr [2:0] $end
$var reg 4 "7 fifo_count [3:0] $end
$upscope $end

$upscope $end


$scope module port3_i $end
$var reg 1 "8 fifo_full $end
$var reg 1 Y clk $end
$var reg 1 Z rst_n $end
$var reg 1 > valid_in $end
$var reg 4 "9 source_in [3:0] $end
$var reg 4 ": target_in [3:0] $end
$var reg 8 "; data_in [7:0] $end
$var reg 1 "< grant $end
$var reg 4 N pkt_dst [3:0] $end
$var reg 16 V fifo_data_out [15:0] $end
$var reg 1 "= port_req $end
$var reg 1 "> fifo_empty $end
$var reg 8 "? header_out [7:0] $end
$var reg 2 "@ current_state [1:0] $end
$var reg 2 "A next_state [1:0] $end
$var reg 2 "B Packet_Type [1:0] $end
$var reg 2 "C pkt_type [1:0] $end
$var reg 1 "D pkt_valid $end
$var reg 1 "E read_en_fifo $end

$scope module parser_inst $end
$var reg 4 "F source [3:0] $end
$var reg 4 "G target [3:0] $end
$var reg 2 "C pkt_type [1:0] $end
$var reg 1 "D pkt_valid $end
$upscope $end


$scope module port_fifo $end
$var reg 1 Z rst_n $end
$var reg 1 Y clk $end
$var reg 16 "H data_in [15:0] $end
$var reg 1 > wr_en $end
$var reg 1 "8 fifo_full $end
$var reg 8 "? header_out [7:0] $end
$var reg 1 "E rd_en $end
$var reg 16 V data_out [15:0] $end
$var reg 1 "> fifo_empty $end
$var reg 3 "I wr_ptr [2:0] $end
$var reg 3 "J rd_ptr [2:0] $end
$var reg 4 "K fifo_count [3:0] $end
$upscope $end

$upscope $end


$scope module top_arb_i $end
$var reg 1 ! clk $end
$var reg 1 " rst_n $end
$var reg 4 W port_reqs [3:0] $end
$var reg 4 K port0_dst [3:0] $end
$var reg 4 L port1_dst [3:0] $end
$var reg 4 M port2_dst [3:0] $end
$var reg 4 N port3_dst [3:0] $end
$var reg 4 F grant_bus [3:0] $end
$var reg 2 G mux_sel0 [1:0] $end
$var reg 2 H mux_sel1 [1:0] $end
$var reg 2 I mux_sel2 [1:0] $end
$var reg 2 J mux_sel3 [1:0] $end
$var reg 1 O active0 $end
$var reg 1 P active1 $end
$var reg 1 Q active2 $end
$var reg 1 R active3 $end
$var reg 2 "L ptr0 [1:0] $end
$var reg 2 "M ptr1 [1:0] $end
$var reg 2 "N ptr2 [1:0] $end
$var reg 2 "O ptr3 [1:0] $end
$var reg 4 "P win_out0 [3:0] $end
$var reg 4 "Q win_out1 [3:0] $end
$var reg 4 "R win_out2 [3:0] $end
$var reg 4 "S win_out3 [3:0] $end
$var reg 4 "T reqs_out0 [3:0] $end
$var reg 4 "U reqs_out1 [3:0] $end
$var reg 4 "V reqs_out2 [3:0] $end
$var reg 4 "W reqs_out3 [3:0] $end
$upscope $end


$scope module mux0_i $end
$var reg 2 G mux_sel [1:0] $end
$var reg 16 S data_in0 [15:0] $end
$var reg 16 T data_in1 [15:0] $end
$var reg 16 U data_in2 [15:0] $end
$var reg 16 V data_in3 [15:0] $end
$var reg 1 "X arb_active $end
$var reg 8 "Y data_out [7:0] $end
$var reg 1 "Z valid_out $end
$upscope $end


$scope module mux1_i $end
$var reg 2 H mux_sel [1:0] $end
$var reg 16 S data_in0 [15:0] $end
$var reg 16 T data_in1 [15:0] $end
$var reg 16 U data_in2 [15:0] $end
$var reg 16 V data_in3 [15:0] $end
$var reg 1 "[ arb_active $end
$var reg 8 "\ data_out [7:0] $end
$var reg 1 "] valid_out $end
$upscope $end


$scope module mux2_i $end
$var reg 2 I mux_sel [1:0] $end
$var reg 16 S data_in0 [15:0] $end
$var reg 16 T data_in1 [15:0] $end
$var reg 16 U data_in2 [15:0] $end
$var reg 16 V data_in3 [15:0] $end
$var reg 1 "^ arb_active $end
$var reg 8 "_ data_out [7:0] $end
$var reg 1 "` valid_out $end
$upscope $end


$scope module mux3_i $end
$var reg 2 J mux_sel [1:0] $end
$var reg 16 S data_in0 [15:0] $end
$var reg 16 T data_in1 [15:0] $end
$var reg 16 U data_in2 [15:0] $end
$var reg 16 V data_in3 [15:0] $end
$var reg 1 "a arb_active $end
$var reg 8 "b data_out [7:0] $end
$var reg 1 "c valid_out $end
$upscope $end

$upscope $end

$upscope $end

$enddefinitions $end

#0
$dumpvars
0O
0P
0Q
0R
0!
0"
b0000000000000000 S
b0000000000000000 T
b0000000000000000 U
b0000000000000000 V
b0000 F
b00 G
b00 H
b00 I
b00 J
b0000 K
b0000 L
b0000 M
b0000 N
b0000 W
b00 "L
b00 "M
b00 "N
b00 "O
b0000 "T
b0000 "U
b0000 "V
b0000 "W
b0000 "P
b0000 "Q
b0000 "R
b0000 "S
b00000000000000000000000000000000 #
b00000000 )
bxxxxxxxx '
bxxxx &
bxxxx %
b00000000 3
bxxxxxxxx 1
bxxxx 0
bxxxx /
b00000000 ;
bxxxxxxxx 9
bxxxx 8
bxxxx 7
b00000000 C
bxxxxxxxx A
bxxxx @
bxxxx ?
1`
0f
0_
0g
b00 d
b00 b
bxxxxxxxx ]
b0000 m
b00000000 a
b00 c
b00 e
b000 l
bxxxx [
bxxxx \
bxxxxxxxxxxxxxxxx j
bxxxx i
bxxxx h
b000 k
1t
0z
0s
0{
b00 x
b00 v
bxxxxxxxx q
b0000 "#
b00000000 u
b00 w
b00 y
b000 ""
bxxxx o
bxxxx p
bxxxxxxxxxxxxxxxx ~
bxxxx }
bxxxx |
b000 "!
1"*
0"0
0")
0"1
b00 ".
b00 ",
bxxxxxxxx "'
b0000 "7
b00000000 "+
b00 "-
b00 "/
b000 "6
bxxxx "%
bxxxx "&
bxxxxxxxxxxxxxxxx "4
bxxxx "3
bxxxx "2
b000 "5
1">
0"D
0"=
0"E
b00 "B
b00 "@
bxxxxxxxx ";
b0000 "K
b00000000 "?
b00 "A
b00 "C
b000 "J
bxxxx "9
bxxxx ":
bxxxxxxxxxxxxxxxx "H
bxxxx "G
bxxxx "F
b000 "I
0"Z
b00000000 "Y
0"]
b00000000 "\
0"`
b00000000 "_
0"c
b00000000 "b
bxxxx E
bxxxx D
0Y
0Z
0^
0r
0"(
0"<
0"X
0"[
0"^
0"a
0*
0+
x$
0(
x.
02
x6
0:
x>
0B
0X
0n
0"$
0"8
$end
b0000 i
b0000 h
b0000 }
b0000 |
b0000 "3
b0000 "2
b0000 "G
b0000 "F
#5
1!
1Y
1*
#10
0!
0Y
0*
#15
1!
1Y
1*
#20
0!
0Y
0*
#25
1!
1Y
1*
#30
0!
0Y
0*
#35
1!
1Y
1*
#40
0!
0Y
0*
#45
1!
1Y
1*
1"
1+
1Z
#50
0!
0Y
0*
#55
1!
1Y
1*
#60
0!
0Y
0*
#65
1!
1Y
1*
#70
0!
0Y
0*
#75
1!
1Y
1*
#80
0!
0Y
0*
#85
1!
1Y
1*
#90
0!
0Y
0*
#95
1!
1Y
1*
1$
b0100 %
b0100 [
bxxxxxxxxxxxx0100 j
b0010 &
b0010 \
bxxxxxxxx00100100 j
b01000001 '
b01000001 ]
b0100000100100100 j
#100
0!
0Y
0*
#105
1!
1Y
1*
b00000000000000000000000000000001 #
b001 k
b0001 m
0`
b1000 %
b1000 [
b0100000100101000 j
b00010011 '
b00010011 ]
b0001001100101000 j
b00100100 a
b0010 i
b0100 h
b0010 K
b01 c
b0001 "U
b0001 "Q
b01 e
1f
#110
0!
0Y
0*
#115
1!
1Y
1*
b00000000000000000000000000000010 #
b010 k
b0010 m
b01 b
b0100 %
b0100 [
b0001001100100100 j
b10100111 '
b10100111 ]
b1010011100100100 j
b10 c
#120
0!
0Y
0*
#125
1!
1Y
1*
b00000000000000000000000000000011 #
b011 k
b0011 m
b10 b
b01 d
b1000 %
b1000 [
b1010011100101000 j
b01101101 '
b01101101 ]
b0110110100101000 j
1_
b0001 W
b0001 F
1^
b11 c
1g
#130
0!
0Y
0*
#135
1!
1Y
1*
b00000000000000000000000000000100 #
b100 k
b0100000100100100 S
b001 l
b11 b
b0001 %
b0001 [
b0110110100100001 j
b10111100 '
b10111100 ]
b1011110000100001 j
1P
1"[
b01 "M
b01000001 "\
b01000001 3
1"]
12
b00101000 a
b1000 h
b01 c
0_
0g
b0000 F
0^
b0000 W
#140
0!
0Y
0*
#145
1!
1Y
1*
b00000000000000000000000000000101 #
b101 k
b0100 m
b01 b
b1000 %
b1000 [
b1011110000101000 j
b01110000 '
b01110000 ]
b0111000000101000 j
0P
0"[
b10 c
b00000000 "\
b00000000 3
0"]
02
#150
0!
0Y
0*
#155
1!
1Y
1*
b00000000000000000000000000000110 #
b110 k
b0101 m
b10 b
b0100 %
b0100 [
b0111000000100100 j
b10000110 '
b10000110 ]
b1000011000100100 j
1_
b0001 W
b0001 F
1^
b11 c
1g
#160
0!
0Y
0*
#165
1!
1Y
1*
b00000000000000000000000000000111 #
b111 k
b0001001100101000 S
b010 l
b11 b
b11010011 '
b11010011 ]
b1101001100100100 j
1P
1"[
b00010011 "\
b00010011 3
1"]
12
b00100100 a
b0100 h
b01 c
0_
0g
b0000 W
b0000 F
0^
#170
0!
0Y
0*
#175
1!
1Y
1*
b00000000000000000000000000001000 #
b000 k
b0110 m
b01 b
b00001100 '
b00001100 ]
b0000110000100100 j
0P
0"[
b10 c
b00000000 "\
b00000000 3
0"]
02
#180
0!
0Y
0*
#185
1!
1Y
1*
b00000000000000000000000000001001 #
b001 k
b0111 m
b10 b
b0001 %
b0001 [
b0000110000100001 j
b01000000 '
b01000000 ]
b0100000000100001 j
1_
b0001 W
b0001 F
1^
b11 c
1g
#190
0!
0Y
0*
#195
1!
1Y
1*
b00000000000000000000000000001010 #
b010 k
b1010011100100100 S
b011 l
b11 b
b1000 %
b1000 [
b0100000000101000 j
b00001001 '
b00001001 ]
b0000100100101000 j
1P
1"[
b10100111 "\
b10100111 3
1"]
12
b00101000 a
b1000 h
b01 c
0_
0g
b0000 W
b0000 F
0^
#200
0!
0Y
0*
#205
1!
1Y
1*
b00000000000000000000000000001011 #
b011 k
b1000 m
1X
b01 b
b0100 %
b0100 [
b0000100100100100 j
b10111100 '
b10111100 ]
b1011110000100100 j
0P
0"[
b10 c
b00000000 "\
b00000000 3
0"]
02
#210
0!
0Y
0*
#215
1!
1Y
1*
b00000000000000000000000000001100 #
b10 b
b1000 %
b1000 [
b1011110000101000 j
b10110110 '
b10110110 ]
b1011011000101000 j
1_
b0001 W
b0001 F
1^
b11 c
1g
#220
0!
0Y
0*
#225
1!
1Y
1*
b00000000000000000000000000001101 #
b0110110100101000 S
b100 l
b0111 m
0X
b11 b
b0100 %
b0100 [
b1011011000100100 j
b10100110 '
b10100110 ]
b1010011000100100 j
1P
1"[
b01101101 "\
b01101101 3
1"]
12
b00100001 a
b0001 h
b01 c
0_
0g
b0000 W
b0000 F
0^
#230
0!
0Y
0*
#235
1!
1Y
1*
b00000000000000000000000000001110 #
b100 k
b1000 m
1X
b01 b
b0001 %
b0001 [
b1010011000100001 j
b10010011 '
b10010011 ]
b1001001100100001 j
0P
0"[
b10 c
b00000000 "\
b00000000 3
0"]
02
#240
0!
0Y
0*
#245
1!
1Y
1*
b00000000000000000000000000001111 #
b10 b
b0100 %
b0100 [
b1001001100100100 j
b11110100 '
b11110100 ]
b1111010000100100 j
1_
b0001 W
b0001 F
1^
b11 c
1g
#250
0!
0Y
0*
#255
1!
1Y
1*
b00000000000000000000000000010000 #
b1011110000100001 S
b101 l
b0111 m
0X
b11 b
b1000 %
b1000 [
b1111010000101000 j
b01001111 '
b01001111 ]
b0100111100101000 j
1P
1"[
b10111100 "\
b10111100 3
1"]
12
b00101000 a
b1000 h
b01 c
0_
0g
b0000 W
b0000 F
0^
#260
0!
0Y
0*
#265
1!
1Y
1*
b00000000000000000000000000010001 #
b101 k
b1000 m
1X
b01 b
0$
0P
0"[
b10 c
b00000000 "\
b00000000 3
0"]
02
#270
0!
0Y
0*
#275
1!
1Y
1*
b10 b
1_
b0001 W
b0001 F
1^
b11 c
1g
#280
0!
0Y
0*
#285
1!
1Y
1*
b0111000000101000 S
b110 l
b0111 m
0X
b11 b
1P
1"[
b01110000 "\
b01110000 3
1"]
12
b00100100 a
b0100 h
b01 c
0_
0g
b0000 W
b0000 F
0^
#290
0!
0Y
0*
#295
1!
1Y
1*
b01 b
0P
0"[
b10 c
b00000000 "\
b00000000 3
0"]
02
#300
0!
0Y
0*
#305
1!
1Y
1*
b10 b
1_
b0001 W
b0001 F
1^
b11 c
1g
#310
0!
0Y
0*
#315
1!
1Y
1*
b1000011000100100 S
b111 l
b0110 m
b11 b
1P
1"[
b10000110 "\
b10000110 3
1"]
12
b01 c
0_
0g
b0000 W
b0000 F
0^
#320
0!
0Y
0*
#325
1!
1Y
1*
b01 b
0P
0"[
b10 c
b00000000 "\
b00000000 3
0"]
02
#330
0!
0Y
0*
#335
1!
1Y
1*
b10 b
1_
b0001 W
b0001 F
1^
b11 c
1g
#340
0!
0Y
0*
#345
1!
1Y
1*
b1101001100100100 S
b000 l
b0101 m
b11 b
1P
1"[
b11010011 "\
b11010011 3
1"]
12
b01 c
0_
0g
b0000 W
b0000 F
0^
#350
0!
0Y
0*
#355
1!
1Y
1*
b01 b
0P
0"[
b10 c
b00000000 "\
b00000000 3
0"]
02
#360
0!
0Y
0*
#365
1!
1Y
1*
b10 b
1_
b0001 W
b0001 F
1^
b11 c
1g
#370
0!
0Y
0*
#375
1!
1Y
1*
b0000110000100100 S
b001 l
b0100 m
b11 b
1P
1"[
b00001100 "\
b00001100 3
1"]
12
b00100001 a
b0001 h
b01 c
0_
0g
b0000 W
b0000 F
0^
#380
0!
0Y
0*
#385
1!
1Y
1*
b01 b
0P
0"[
b10 c
b00000000 "\
b00000000 3
0"]
02
#390
0!
0Y
0*
#395
1!
1Y
1*
b10 b
1_
b0001 W
b0001 F
1^
b11 c
1g
#400
0!
0Y
0*
#405
1!
1Y
1*
b0100000000100001 S
b010 l
b0011 m
b11 b
1P
1"[
b01000000 "\
b01000000 3
1"]
12
b00101000 a
b1000 h
b01 c
0_
0g
b0000 W
b0000 F
0^
#410
0!
0Y
0*
#415
1!
1Y
1*
b01 b
0P
0"[
b10 c
b00000000 "\
b00000000 3
0"]
02
#420
0!
0Y
0*
#425
1!
1Y
1*
b10 b
1_
b0001 W
b0001 F
1^
b11 c
1g
#430
0!
0Y
0*
#435
1!
1Y
1*
b0000100100101000 S
b011 l
b0010 m
b11 b
1P
1"[
b00001001 "\
b00001001 3
1"]
12
b00100100 a
b0100 h
b01 c
0_
0g
b0000 W
b0000 F
0^
#440
0!
0Y
0*
#445
1!
1Y
1*
b01 b
0P
0"[
b10 c
b00000000 "\
b00000000 3
0"]
02
#450
0!
0Y
0*
#455
1!
1Y
1*
b10 b
1_
b0001 W
b0001 F
1^
b11 c
1g
#460
0!
0Y
0*
#465
1!
1Y
1*
b1010011000100100 S
b100 l
b0001 m
b11 b
1P
1"[
b10100110 "\
b10100110 3
1"]
12
b00101000 a
b1000 h
b01 c
0_
0g
b0000 W
b0000 F
0^
#470
0!
0Y
0*
#475
1!
1Y
1*
b01 b
0P
0"[
b10 c
b00000000 "\
b00000000 3
0"]
02
#480
0!
0Y
0*
#485
1!
1Y
1*
b10 b
1_
b0001 W
b0001 F
1^
b11 c
1g
#490
0!
0Y
0*
#495
1!
1Y
1*
b0100111100101000 S
b101 l
b0000 m
1`
b11 b
1P
1"[
b01001111 "\
b01001111 3
1"]
12
b00000000 a
b0000 i
b0000 h
b0000 K
b00 c
0_
0g
b0000 F
0^
b0000 "U
b0000 "Q
b00 e
0f
b0000 W
#500
0!
0Y
0*
#505
1!
1Y
1*
b00 b
0P
0"[
b00000000 "\
b00000000 3
0"]
02
