Synt/gls_final_cg_1Ghz.log
Command: /project/verif/users/arielt/ws/ex_vlsi_switch_project_ariel/Synt/./simv +vcs+initreg+1 +ntb_random_seed_automatic +ERR_PKT -cm line+cond+fsm+branch+tgl -cm_dir ./cov_work/gls_simv.vdb -cm_name gls_final_submission -l gls_final_cg_1Ghz.log
Chronologic VCS simulator copyright 1991-2025
Contains Synopsys proprietary information.
Compiler version X-2025.06-1_Full64; Runtime version X-2025.06-1_Full64;  Jan 15 10:26 2026
NOTE: automatic random seed used: 915288026
Doing SDF annotation ...... Done
--- Starting Simulation (Driver-Driven) ---
Number of packets about to be generated at each port:  200
[Checker] Predicted Drop: Packet ID 0 is INVALID (Src:0001 Tgt:1001). Ignoring.
[Driver_0] ID:0 Name:pkt_0 | Src:0001 Tgt:1001 | Data(Hex):70 Data(Dec):112 | Type:MDP
[Checker] Predicted Drop: Packet ID 1 is INVALID (Src:0010 Tgt:1110). Ignoring.
[Driver_1] ID:1 Name:pkt_1 | Src:0010 Tgt:1110 | Data(Hex):bb Data(Dec):187 | Type:MDP
[Checker] Predicted Drop: Packet ID 2 is INVALID (Src:0100 Tgt:0100). Ignoring.
[Driver_2] ID:2 Name:pkt_2 | Src:0100 Tgt:0100 | Data(Hex):a2 Data(Dec):162 | Type:SDP
[Driver_3] ID:3 Name:pkt_3 | Src:1000 Tgt:1111 | Data(Hex):ca Data(Dec):202 | Type:BDP

"./saed32nm_hvt_fixed.tv", 15681: Timing violation in switch_test.dut.impl.top_arb_i_active2_reg
    $setuphold( posedge CLK &&& (vcond2 == 1'b1):1875000, posedge D:1874070, limits: (1730,0) );

"./saed32nm_hvt_fixed.tv", 15681: Timing violation in switch_test.dut.impl.top_arb_i_active3_reg
    $setuphold( posedge CLK &&& (vcond2 == 1'b1):1875000, posedge D:1874070, limits: (1730,0) );

"./saed32nm_hvt_fixed.tv", 15681: Timing violation in switch_test.dut.impl.top_arb_i_active1_reg
    $setuphold( posedge CLK &&& (vcond2 == 1'b1):1875000, posedge D:1874070, limits: (1730,0) );

"./saed32nm_hvt_fixed.tv", 15681: Timing violation in switch_test.dut.impl.top_arb_i_active0_reg
    $setuphold( posedge CLK &&& (vcond2 == 1'b1):1875000, posedge D:1874200, limits: (1730,0) );

[Driver_1] ID:4 Name:pkt_1 | Src:0010 Tgt:1111 | Data(Hex):68 Data(Dec):104 | Type:BDP
[Monitor_0] ID:5 Name:monitored | Src:0010 Tgt:1111 | Data(Hex):68 Data(Dec):104 | Type:BDP
[Monitor_1] ID:6 Name:monitored | Src:0010 Tgt:1111 | Data(Hex):68 Data(Dec):104 | Type:BDP
[Monitor_2] ID:7 Name:monitored | Src:0010 Tgt:1111 | Data(Hex):68 Data(Dec):104 | Type:BDP
[Monitor_3] ID:8 Name:monitored | Src:0010 Tgt:1111 | Data(Hex):68 Data(Dec):104 | Type:BDP
[Checker] Predicted Drop: Packet ID 9 is INVALID (Src:1000 Tgt:1100). Ignoring.
[Driver_3] ID:9 Name:pkt_3 | Src:1000 Tgt:1100 | Data(Hex):5d Data(Dec):93 | Type:MDP
[Driver_0] ID:10 Name:pkt_0 | Src:0001 Tgt:1000 | Data(Hex):4e Data(Dec):78 | Type:SDP
[Checker] Predicted Drop: Packet ID 11 is INVALID (Src:0010 Tgt:1110). Ignoring.
[Driver_1] ID:11 Name:pkt_1 | Src:0010 Tgt:1110 | Data(Hex):5f Data(Dec):95 | Type:MDP
[Checker] Predicted Drop: Packet ID 12 is INVALID (Src:0100 Tgt:1101). Ignoring.
[Driver_2] ID:12 Name:pkt_2 | Src:0100 Tgt:1101 | Data(Hex):19 Data(Dec):25 | Type:MDP
[Monitor_3] ID:13 Name:monitored | Src:0001 Tgt:1000 | Data(Hex):4e Data(Dec):78 | Type:SDP
[Checker] Predicted Drop: Packet ID 14 is INVALID (Src:1000 Tgt:1001). Ignoring.
[Driver_3] ID:14 Name:pkt_3 | Src:1000 Tgt:1001 | Data(Hex):ac Data(Dec):172 | Type:MDP
[Checker] Predicted Drop: Packet ID 15 is INVALID (Src:0010 Tgt:0011). Ignoring.
[Driver_1] ID:15 Name:pkt_1 | Src:0010 Tgt:0011 | Data(Hex):0e Data(Dec):14 | Type:MDP
[Driver_2] ID:16 Name:pkt_2 | Src:0100 Tgt:1011 | Data(Hex):56 Data(Dec):86 | Type:MDP
[Monitor_0] ID:17 Name:monitored | Src:0100 Tgt:1011 | Data(Hex):56 Data(Dec):86 | Type:MDP
[Monitor_1] ID:18 Name:monitored | Src:0100 Tgt:1011 | Data(Hex):56 Data(Dec):86 | Type:MDP
[Monitor_3] ID:19 Name:monitored | Src:0100 Tgt:1011 | Data(Hex):56 Data(Dec):86 | Type:MDP
[Driver_3] ID:20 Name:pkt_3 | Src:1000 Tgt:0100 | Data(Hex):99 Data(Dec):153 | Type:SDP
[Monitor_2] ID:21 Name:monitored | Src:1000 Tgt:0100 | Data(Hex):99 Data(Dec):153 | Type:SDP
[Checker] Predicted Drop: Packet ID 22 is INVALID (Src:0001 Tgt:0111). Ignoring.
[Driver_0] ID:22 Name:pkt_0 | Src:0001 Tgt:0111 | Data(Hex):68 Data(Dec):104 | Type:MDP
[Checker] Predicted Drop: Packet ID 23 is INVALID (Src:1000 Tgt:1011). Ignoring.
[Driver_3] ID:23 Name:pkt_3 | Src:1000 Tgt:1011 | Data(Hex):9a Data(Dec):154 | Type:MDP
[Driver_2] ID:24 Name:pkt_2 | Src:0100 Tgt:1011 | Data(Hex):e3 Data(Dec):227 | Type:MDP
[Monitor_0] ID:25 Name:monitored | Src:0100 Tgt:1011 | Data(Hex):e3 Data(Dec):227 | Type:MDP
[Monitor_1] ID:26 Name:monitored | Src:0100 Tgt:1011 | Data(Hex):e3 Data(Dec):227 | Type:MDP
[Monitor_3] ID:27 Name:monitored | Src:0100 Tgt:1011 | Data(Hex):e3 Data(Dec):227 | Type:MDP
[Checker] Predicted Drop: Packet ID 28 is INVALID (Src:0010 Tgt:0000). Ignoring.
[Driver_1] ID:28 Name:pkt_1 | Src:0010 Tgt:0000 | Data(Hex):d0 Data(Dec):208 | Type:ERR
[Checker] Predicted Drop: Packet ID 29 is INVALID (Src:0001 Tgt:0000). Ignoring.
[Driver_0] ID:29 Name:pkt_0 | Src:0001 Tgt:0000 | Data(Hex):e8 Data(Dec):232 | Type:ERR
[Driver_1] ID:30 Name:pkt_1 | Src:0010 Tgt:1111 | Data(Hex):18 Data(Dec):24 | Type:BDP
[Monitor_0] ID:31 Name:monitored | Src:0010 Tgt:1111 | Data(Hex):18 Data(Dec):24 | Type:BDP
[Monitor_1] ID:32 Name:monitored | Src:0010 Tgt:1111 | Data(Hex):18 Data(Dec):24 | Type:BDP
[Monitor_2] ID:33 Name:monitored | Src:0010 Tgt:1111 | Data(Hex):18 Data(Dec):24 | Type:BDP
[Monitor_3] ID:34 Name:monitored | Src:0010 Tgt:1111 | Data(Hex):18 Data(Dec):24 | Type:BDP
[Checker] Predicted Drop: Packet ID 35 is INVALID (Src:1000 Tgt:1001). Ignoring.
[Driver_3] ID:35 Name:pkt_3 | Src:1000 Tgt:1001 | Data(Hex):89 Data(Dec):137 | Type:MDP
[Driver_2] ID:36 Name:pkt_2 | Src:0100 Tgt:1010 | Data(Hex):61 Data(Dec):97 | Type:MDP
[Monitor_1] ID:37 Name:monitored | Src:0100 Tgt:1010 | Data(Hex):61 Data(Dec):97 | Type:MDP
[Monitor_3] ID:38 Name:monitored | Src:0100 Tgt:1010 | Data(Hex):61 Data(Dec):97 | Type:MDP
[Driver_0] ID:39 Name:pkt_0 | Src:0001 Tgt:1100 | Data(Hex):78 Data(Dec):120 | Type:MDP
[Monitor_2] ID:40 Name:monitored | Src:0001 Tgt:1100 | Data(Hex):78 Data(Dec):120 | Type:MDP
[Monitor_3] ID:41 Name:monitored | Src:0001 Tgt:1100 | Data(Hex):78 Data(Dec):120 | Type:MDP
[Driver_3] ID:42 Name:pkt_3 | Src:1000 Tgt:0101 | Data(Hex):b7 Data(Dec):183 | Type:MDP
[Monitor_0] ID:43 Name:monitored | Src:1000 Tgt:0101 | Data(Hex):b7 Data(Dec):183 | Type:MDP
[Monitor_2] ID:44 Name:monitored | Src:1000 Tgt:0101 | Data(Hex):b7 Data(Dec):183 | Type:MDP
[Checker] Predicted Drop: Packet ID 45 is INVALID (Src:0010 Tgt:0011). Ignoring.
[Driver_1] ID:45 Name:pkt_1 | Src:0010 Tgt:0011 | Data(Hex):76 Data(Dec):118 | Type:MDP
[Checker] Predicted Drop: Packet ID 46 is INVALID (Src:0100 Tgt:0000). Ignoring.
[Driver_2] ID:46 Name:pkt_2 | Src:0100 Tgt:0000 | Data(Hex):9f Data(Dec):159 | Type:ERR
[Driver_0] ID:47 Name:pkt_0 | Src:0001 Tgt:1010 | Data(Hex):bb Data(Dec):187 | Type:MDP
[Monitor_1] ID:48 Name:monitored | Src:0001 Tgt:1010 | Data(Hex):bb Data(Dec):187 | Type:MDP
[Monitor_3] ID:49 Name:monitored | Src:0001 Tgt:1010 | Data(Hex):bb Data(Dec):187 | Type:MDP
[Driver_3] ID:50 Name:pkt_3 | Src:1000 Tgt:0011 | Data(Hex):3e Data(Dec):62 | Type:MDP
[Monitor_0] ID:51 Name:monitored | Src:1000 Tgt:0011 | Data(Hex):3e Data(Dec):62 | Type:MDP
[Monitor_1] ID:52 Name:monitored | Src:1000 Tgt:0011 | Data(Hex):3e Data(Dec):62 | Type:MDP
[Checker] Predicted Drop: Packet ID 53 is INVALID (Src:0010 Tgt:0111). Ignoring.
[Driver_1] ID:53 Name:pkt_1 | Src:0010 Tgt:0111 | Data(Hex):6b Data(Dec):107 | Type:MDP
[Checker] Predicted Drop: Packet ID 54 is INVALID (Src:0100 Tgt:1101). Ignoring.
[Driver_2] ID:54 Name:pkt_2 | Src:0100 Tgt:1101 | Data(Hex):da Data(Dec):218 | Type:MDP
[Checker] Predicted Drop: Packet ID 55 is INVALID (Src:0001 Tgt:0000). Ignoring.
[Driver_0] ID:55 Name:pkt_0 | Src:0001 Tgt:0000 | Data(Hex):9c Data(Dec):156 | Type:ERR
[Driver_1] ID:56 Name:pkt_1 | Src:0010 Tgt:1111 | Data(Hex):ee Data(Dec):238 | Type:BDP
[Monitor_0] ID:57 Name:monitored | Src:0010 Tgt:1111 | Data(Hex):ee Data(Dec):238 | Type:BDP
[Monitor_1] ID:58 Name:monitored | Src:0010 Tgt:1111 | Data(Hex):ee Data(Dec):238 | Type:BDP
[Monitor_2] ID:59 Name:monitored | Src:0010 Tgt:1111 | Data(Hex):ee Data(Dec):238 | Type:BDP
[Monitor_3] ID:60 Name:monitored | Src:0010 Tgt:1111 | Data(Hex):ee Data(Dec):238 | Type:BDP
[Driver_3] ID:61 Name:pkt_3 | Src:1000 Tgt:0101 | Data(Hex):19 Data(Dec):25 | Type:MDP
[Monitor_0] ID:62 Name:monitored | Src:1000 Tgt:0101 | Data(Hex):19 Data(Dec):25 | Type:MDP
[Monitor_2] ID:63 Name:monitored | Src:1000 Tgt:0101 | Data(Hex):19 Data(Dec):25 | Type:MDP
[Checker] Predicted Drop: Packet ID 64 is INVALID (Src:0100 Tgt:1101). Ignoring.
[Driver_2] ID:64 Name:pkt_2 | Src:0100 Tgt:1101 | Data(Hex):8e Data(Dec):142 | Type:MDP
[Driver_3] ID:65 Name:pkt_3 | Src:1000 Tgt:1111 | Data(Hex):2d Data(Dec):45 | Type:BDP
[Monitor_0] ID:66 Name:monitored | Src:1000 Tgt:1111 | Data(Hex):2d Data(Dec):45 | Type:BDP
[Monitor_1] ID:67 Name:monitored | Src:1000 Tgt:1111 | Data(Hex):2d Data(Dec):45 | Type:BDP
[Monitor_2] ID:68 Name:monitored | Src:1000 Tgt:1111 | Data(Hex):2d Data(Dec):45 | Type:BDP
[Monitor_3] ID:69 Name:monitored | Src:1000 Tgt:1111 | Data(Hex):2d Data(Dec):45 | Type:BDP
[Driver_1] ID:70 Name:pkt_1 | Src:0010 Tgt:1100 | Data(Hex):db Data(Dec):219 | Type:MDP
[Monitor_2] ID:71 Name:monitored | Src:0010 Tgt:1100 | Data(Hex):db Data(Dec):219 | Type:MDP
[Monitor_3] ID:72 Name:monitored | Src:0010 Tgt:1100 | Data(Hex):db Data(Dec):219 | Type:MDP
[Driver_0] ID:73 Name:pkt_0 | Src:0001 Tgt:1100 | Data(Hex):8b Data(Dec):139 | Type:MDP
[Monitor_2] ID:74 Name:monitored | Src:0001 Tgt:1100 | Data(Hex):8b Data(Dec):139 | Type:MDP
[Monitor_3] ID:75 Name:monitored | Src:0001 Tgt:1100 | Data(Hex):8b Data(Dec):139 | Type:MDP
[Driver_1] ID:76 Name:pkt_1 | Src:0010 Tgt:0001 | Data(Hex):22 Data(Dec):34 | Type:SDP
[Monitor_0] ID:77 Name:monitored | Src:0010 Tgt:0001 | Data(Hex):22 Data(Dec):34 | Type:SDP
[Driver_2] ID:78 Name:pkt_2 | Src:0100 Tgt:1000 | Data(Hex):9a Data(Dec):154 | Type:SDP
[Monitor_3] ID:79 Name:monitored | Src:0100 Tgt:1000 | Data(Hex):9a Data(Dec):154 | Type:SDP
[Checker] Predicted Drop: Packet ID 80 is INVALID (Src:0100 Tgt:0101). Ignoring.
[Driver_2] ID:80 Name:pkt_2 | Src:0100 Tgt:0101 | Data(Hex):44 Data(Dec):68 | Type:MDP
[Checker] Predicted Drop: Packet ID 81 is INVALID (Src:1000 Tgt:1011). Ignoring.
[Driver_3] ID:81 Name:pkt_3 | Src:1000 Tgt:1011 | Data(Hex):1f Data(Dec):31 | Type:MDP
[Checker] Predicted Drop: Packet ID 82 is INVALID (Src:0001 Tgt:0000). Ignoring.
[Driver_0] ID:82 Name:pkt_0 | Src:0001 Tgt:0000 | Data(Hex):b5 Data(Dec):181 | Type:ERR
[Driver_3] ID:83 Name:pkt_3 | Src:1000 Tgt:0110 | Data(Hex):24 Data(Dec):36 | Type:MDP
[Monitor_1] ID:84 Name:monitored | Src:1000 Tgt:0110 | Data(Hex):24 Data(Dec):36 | Type:MDP
[Monitor_2] ID:85 Name:monitored | Src:1000 Tgt:0110 | Data(Hex):24 Data(Dec):36 | Type:MDP
[Driver_0] ID:86 Name:pkt_0 | Src:0001 Tgt:1000 | Data(Hex):5e Data(Dec):94 | Type:SDP
[Driver_1] ID:87 Name:pkt_1 | Src:0010 Tgt:0100 | Data(Hex):64 Data(Dec):100 | Type:SDP
[Checker] Predicted Drop: Packet ID 88 is INVALID (Src:0100 Tgt:0000). Ignoring.
[Driver_2] ID:88 Name:pkt_2 | Src:0100 Tgt:0000 | Data(Hex):5f Data(Dec):95 | Type:ERR
[Monitor_2] ID:89 Name:monitored | Src:0010 Tgt:0100 | Data(Hex):64 Data(Dec):100 | Type:SDP
[Monitor_3] ID:90 Name:monitored | Src:0001 Tgt:1000 | Data(Hex):5e Data(Dec):94 | Type:SDP
[Checker] Predicted Drop: Packet ID 91 is INVALID (Src:1000 Tgt:1011). Ignoring.
[Driver_3] ID:91 Name:pkt_3 | Src:1000 Tgt:1011 | Data(Hex):28 Data(Dec):40 | Type:MDP
[Checker] Predicted Drop: Packet ID 92 is INVALID (Src:0001 Tgt:0011). Ignoring.
[Driver_0] ID:92 Name:pkt_0 | Src:0001 Tgt:0011 | Data(Hex):60 Data(Dec):96 | Type:MDP
[Checker] Predicted Drop: Packet ID 93 is INVALID (Src:1000 Tgt:1011). Ignoring.
[Driver_3] ID:93 Name:pkt_3 | Src:1000 Tgt:1011 | Data(Hex):32 Data(Dec):50 | Type:MDP
[Driver_1] ID:94 Name:pkt_1 | Src:0010 Tgt:1111 | Data(Hex):11 Data(Dec):17 | Type:BDP
[Driver_2] ID:95 Name:pkt_2 | Src:0100 Tgt:0011 | Data(Hex):37 Data(Dec):55 | Type:MDP
[Monitor_0] ID:96 Name:monitored | Src:0010 Tgt:1111 | Data(Hex):11 Data(Dec):17 | Type:BDP
[Monitor_1] ID:97 Name:monitored | Src:0010 Tgt:1111 | Data(Hex):11 Data(Dec):17 | Type:BDP
[Monitor_2] ID:98 Name:monitored | Src:0010 Tgt:1111 | Data(Hex):11 Data(Dec):17 | Type:BDP
[Monitor_3] ID:99 Name:monitored | Src:0010 Tgt:1111 | Data(Hex):11 Data(Dec):17 | Type:BDP

"./saed32nm_hvt_fixed.tv", 15681: Timing violation in switch_test.dut.impl.top_arb_i_active1_reg
    $setuphold( posedge CLK &&& (vcond2 == 1'b1):13455000, posedge D:13453400, limits: (1730,0) );

"./saed32nm_hvt_fixed.tv", 15681: Timing violation in switch_test.dut.impl.top_arb_i_active0_reg
    $setuphold( posedge CLK &&& (vcond2 == 1'b1):13455000, posedge D:13453400, limits: (1730,0) );

[Driver_0] ID:100 Name:pkt_0 | Src:0001 Tgt:0010 | Data(Hex):55 Data(Dec):85 | Type:SDP
[Monitor_1] ID:101 Name:monitored | Src:0001 Tgt:0010 | Data(Hex):55 Data(Dec):85 | Type:SDP
[Driver_1] ID:102 Name:pkt_1 | Src:0010 Tgt:1111 | Data(Hex):dd Data(Dec):221 | Type:BDP
[Checker] Predicted Drop: Packet ID 103 is INVALID (Src:0100 Tgt:0101). Ignoring.
[Driver_2] ID:103 Name:pkt_2 | Src:0100 Tgt:0101 | Data(Hex):57 Data(Dec):87 | Type:MDP

"./saed32nm_hvt_fixed.tv", 15681: Timing violation in switch_test.dut.impl.top_arb_i_active2_reg
    $setuphold( posedge CLK &&& (vcond2 == 1'b1):14145000, posedge D:14144890, limits: (1730,0) );

"./saed32nm_hvt_fixed.tv", 15681: Timing violation in switch_test.dut.impl.top_arb_i_active3_reg
    $setuphold( posedge CLK &&& (vcond2 == 1'b1):14145000, posedge D:14144890, limits: (1730,0) );

"./saed32nm_hvt_fixed.tv", 15681: Timing violation in switch_test.dut.impl.top_arb_i_active1_reg
    $setuphold( posedge CLK &&& (vcond2 == 1'b1):14145000, posedge D:14144890, limits: (1730,0) );

"./saed32nm_hvt_fixed.tv", 15681: Timing violation in switch_test.dut.impl.port1_i_current_state_reg_0_
    $setuphold( posedge CLK &&& (vcond2 == 1'b1):14145000, posedge D:14143320, limits: (1730,0) );

"./saed32nm_hvt_fixed.tv", 15681: Timing violation in switch_test.dut.impl.top_arb_i_active0_reg
    $setuphold( posedge CLK &&& (vcond2 == 1'b1):14145000, posedge D:14144760, limits: (1730,0) );


"./saed32nm_hvt_fixed.tv", 15682: Timing violation in switch_test.dut.impl.port1_i_current_state_reg_0_
    $setuphold( posedge CLK &&& (vcond2 == 1'b1):14155000, negedge D:14153990, limits: (1930,0) );

[Driver_3] ID:104 Name:pkt_3 | Src:1000 Tgt:0011 | Data(Hex):7f Data(Dec):127 | Type:MDP
[Monitor_0] ID:105 Name:monitored | Src:1000 Tgt:0011 | Data(Hex):7f Data(Dec):127 | Type:MDP
[Monitor_1] ID:106 Name:monitored | Src:1000 Tgt:0011 | Data(Hex):7f Data(Dec):127 | Type:MDP
[Driver_1] ID:107 Name:pkt_1 | Src:0010 Tgt:0100 | Data(Hex):11 Data(Dec):17 | Type:SDP
[Checker] Predicted Drop: Packet ID 108 is INVALID (Src:0001 Tgt:1011). Ignoring.
[Driver_0] ID:108 Name:pkt_0 | Src:0001 Tgt:1011 | Data(Hex):1b Data(Dec):27 | Type:MDP

"./saed32nm_hvt_fixed.tv", 15681: Timing violation in switch_test.dut.impl.top_arb_i_mux_sel2_reg_0_
    $setuphold( posedge CLK &&& (vcond2 == 1'b1):14925000, posedge D:14923790, limits: (1730,0) );

"./saed32nm_hvt_fixed.tv", 15682: Timing violation in switch_test.dut.impl.top_arb_i_active0_reg
    $setuphold( posedge CLK &&& (vcond2 == 1'b1):14925000, negedge D:14924010, limits: (1930,0) );

[Checker] Predicted Drop: Packet ID 109 is INVALID (Src:0100 Tgt:1100). Ignoring.
[Driver_2] ID:109 Name:pkt_2 | Src:0100 Tgt:1100 | Data(Hex):00 Data(Dec):0 | Type:MDP
[Checker] Predicted Drop: Packet ID 110 is INVALID (Src:1000 Tgt:1010). Ignoring.
[Driver_3] ID:110 Name:pkt_3 | Src:1000 Tgt:1010 | Data(Hex):f0 Data(Dec):240 | Type:MDP

"./saed32nm_hvt_fixed.tv", 15681: Timing violation in switch_test.dut.impl.top_arb_i_active3_reg
    $setuphold( posedge CLK &&& (vcond2 == 1'b1):15545000, posedge D:15543570, limits: (1730,0) );

[Checker] Predicted Drop: Packet ID 111 is INVALID (Src:0001 Tgt:0101). Ignoring.
[Driver_0] ID:111 Name:pkt_0 | Src:0001 Tgt:0101 | Data(Hex):9d Data(Dec):157 | Type:MDP

"./saed32nm_hvt_fixed.tv", 15681: Timing violation in switch_test.dut.impl.top_arb_i_active1_reg
    $setuphold( posedge CLK &&& (vcond2 == 1'b1):15625000, posedge D:15624280, limits: (1730,0) );

"./saed32nm_hvt_fixed.tv", 15682: Timing violation in switch_test.dut.impl.top_arb_i_active0_reg
    $setuphold( posedge CLK &&& (vcond2 == 1'b1):15625000, negedge D:15624010, limits: (1930,0) );


"./saed32nm_hvt_fixed.tv", 15681: Timing violation in switch_test.dut.impl.top_arb_i_active0_reg
    $setuphold( posedge CLK &&& (vcond2 == 1'b1):15645000, posedge D:15643330, limits: (1730,0) );

[Checker] Predicted Drop: Packet ID 112 is INVALID (Src:0010 Tgt:0010). Ignoring.
[Driver_1] ID:112 Name:pkt_1 | Src:0010 Tgt:0010 | Data(Hex):1d Data(Dec):29 | Type:SDP
[Driver_2] ID:113 Name:pkt_2 | Src:0100 Tgt:1011 | Data(Hex):e6 Data(Dec):230 | Type:MDP
[Checker] Predicted Drop: Packet ID 114 is INVALID (Src:0001 Tgt:0111). Ignoring.
[Driver_0] ID:114 Name:pkt_0 | Src:0001 Tgt:0111 | Data(Hex):a8 Data(Dec):168 | Type:MDP
[Driver_2] ID:115 Name:pkt_2 | Src:0100 Tgt:0010 | Data(Hex):15 Data(Dec):21 | Type:SDP
[Driver_1] ID:116 Name:pkt_1 | Src:0010 Tgt:1100 | Data(Hex):56 Data(Dec):86 | Type:MDP
[Driver_3] ID:117 Name:pkt_3 | Src:1000 Tgt:1111 | Data(Hex):57 Data(Dec):87 | Type:BDP
[Checker] Predicted Drop: Packet ID 118 is INVALID (Src:0001 Tgt:0111). Ignoring.
[Driver_0] ID:118 Name:pkt_0 | Src:0001 Tgt:0111 | Data(Hex):f9 Data(Dec):249 | Type:MDP

"./saed32nm_hvt_fixed.tv", 15682: Timing violation in switch_test.dut.impl.top_arb_i_active2_reg
    $setuphold( posedge CLK &&& (vcond2 == 1'b1):17125000, negedge D:17123260, limits: (1930,0) );

[Checker] Predicted Drop: Packet ID 119 is INVALID (Src:0010 Tgt:0000). Ignoring.
[Driver_1] ID:119 Name:pkt_1 | Src:0010 Tgt:0000 | Data(Hex):c8 Data(Dec):200 | Type:ERR
[Checker] Predicted Drop: Packet ID 120 is INVALID (Src:1000 Tgt:1011). Ignoring.
[Driver_3] ID:120 Name:pkt_3 | Src:1000 Tgt:1011 | Data(Hex):87 Data(Dec):135 | Type:MDP
[Driver_1] ID:121 Name:pkt_1 | Src:0010 Tgt:0101 | Data(Hex):8b Data(Dec):139 | Type:MDP
[Checker] Predicted Drop: Packet ID 122 is INVALID (Src:0100 Tgt:0111). Ignoring.
[Driver_2] ID:122 Name:pkt_2 | Src:0100 Tgt:0111 | Data(Hex):f1 Data(Dec):241 | Type:MDP
[Driver_0] ID:123 Name:pkt_0 | Src:0001 Tgt:0110 | Data(Hex):ae Data(Dec):174 | Type:MDP

"./saed32nm_hvt_fixed.tv", 15682: Timing violation in switch_test.dut.impl.top_arb_i_active2_reg
    $setuphold( posedge CLK &&& (vcond2 == 1'b1):18525000, negedge D:18524120, limits: (1930,0) );

"./saed32nm_hvt_fixed.tv", 15682: Timing violation in switch_test.dut.impl.top_arb_i_active1_reg
    $setuphold( posedge CLK &&& (vcond2 == 1'b1):18525000, negedge D:18523830, limits: (1930,0) );

[Driver_1] ID:124 Name:pkt_1 | Src:0010 Tgt:1101 | Data(Hex):1f Data(Dec):31 | Type:MDP
[Checker] Predicted Drop: Packet ID 125 is INVALID (Src:1000 Tgt:0000). Ignoring.
[Driver_3] ID:125 Name:pkt_3 | Src:1000 Tgt:0000 | Data(Hex):0c Data(Dec):12 | Type:ERR
[Driver_1] ID:126 Name:pkt_1 | Src:0010 Tgt:1100 | Data(Hex):18 Data(Dec):24 | Type:MDP
[Driver_3] ID:127 Name:pkt_3 | Src:1000 Tgt:0111 | Data(Hex):15 Data(Dec):21 | Type:MDP
[Driver_0] ID:128 Name:pkt_0 | Src:0001 Tgt:1110 | Data(Hex):6d Data(Dec):109 | Type:MDP
[Driver_2] ID:129 Name:pkt_2 | Src:0100 Tgt:1010 | Data(Hex):60 Data(Dec):96 | Type:MDP
[Checker] Predicted Drop: Packet ID 130 is INVALID (Src:1000 Tgt:1011). Ignoring.
[Driver_3] ID:130 Name:pkt_3 | Src:1000 Tgt:1011 | Data(Hex):e0 Data(Dec):224 | Type:MDP
[Driver_0] ID:131 Name:pkt_0 | Src:0001 Tgt:0110 | Data(Hex):f5 Data(Dec):245 | Type:MDP
[Driver_1] ID:132 Name:pkt_1 | Src:0010 Tgt:1001 | Data(Hex):d5 Data(Dec):213 | Type:MDP
[Driver_2] ID:133 Name:pkt_2 | Src:0100 Tgt:1111 | Data(Hex):76 Data(Dec):118 | Type:BDP
[Driver_2] ID:134 Name:pkt_2 | Src:0100 Tgt:0010 | Data(Hex):14 Data(Dec):20 | Type:SDP
[Driver_3] ID:135 Name:pkt_3 | Src:1000 Tgt:0111 | Data(Hex):01 Data(Dec):1 | Type:MDP
[Checker] Predicted Drop: Packet ID 136 is INVALID (Src:0010 Tgt:1011). Ignoring.
[Driver_1] ID:136 Name:pkt_1 | Src:0010 Tgt:1011 | Data(Hex):9b Data(Dec):155 | Type:MDP
[Driver_0] ID:137 Name:pkt_0 | Src:0001 Tgt:1010 | Data(Hex):cb Data(Dec):203 | Type:MDP
[Driver_1] ID:138 Name:pkt_1 | Src:0010 Tgt:1001 | Data(Hex):d0 Data(Dec):208 | Type:MDP
[Checker] Predicted Drop: Packet ID 139 is INVALID (Src:0010 Tgt:0110). Ignoring.
[Driver_1] ID:139 Name:pkt_1 | Src:0010 Tgt:0110 | Data(Hex):15 Data(Dec):21 | Type:MDP
[Checker] Predicted Drop: Packet ID 140 is INVALID (Src:0001 Tgt:1011). Ignoring.
[Driver_0] ID:140 Name:pkt_0 | Src:0001 Tgt:1011 | Data(Hex):95 Data(Dec):149 | Type:MDP
[Driver_2] ID:141 Name:pkt_2 | Src:0100 Tgt:1000 | Data(Hex):b1 Data(Dec):177 | Type:SDP
[Driver_3] ID:142 Name:pkt_3 | Src:1000 Tgt:0110 | Data(Hex):aa Data(Dec):170 | Type:MDP
[Checker] Predicted Drop: Packet ID 143 is INVALID (Src:0010 Tgt:1110). Ignoring.
[Driver_1] ID:143 Name:pkt_1 | Src:0010 Tgt:1110 | Data(Hex):23 Data(Dec):35 | Type:MDP
[Driver_2] ID:144 Name:pkt_2 | Src:0100 Tgt:1010 | Data(Hex):59 Data(Dec):89 | Type:MDP
[Checker] Predicted Drop: Packet ID 145 is INVALID (Src:1000 Tgt:1000). Ignoring.
[Driver_3] ID:145 Name:pkt_3 | Src:1000 Tgt:1000 | Data(Hex):9c Data(Dec):156 | Type:SDP
[Checker] Predicted Drop: Packet ID 146 is INVALID (Src:0001 Tgt:0001). Ignoring.
[Driver_0] ID:146 Name:pkt_0 | Src:0001 Tgt:0001 | Data(Hex):da Data(Dec):218 | Type:SDP
[Checker] Predicted Drop: Packet ID 147 is INVALID (Src:0010 Tgt:0011). Ignoring.
[Driver_1] ID:147 Name:pkt_1 | Src:0010 Tgt:0011 | Data(Hex):95 Data(Dec):149 | Type:MDP
[Checker] Predicted Drop: Packet ID 148 is INVALID (Src:0100 Tgt:0101). Ignoring.
[Driver_2] ID:148 Name:pkt_2 | Src:0100 Tgt:0101 | Data(Hex):e4 Data(Dec):228 | Type:MDP
[Checker] Predicted Drop: Packet ID 149 is INVALID (Src:1000 Tgt:1110). Ignoring.
[Driver_3] ID:149 Name:pkt_3 | Src:1000 Tgt:1110 | Data(Hex):76 Data(Dec):118 | Type:MDP
[Driver_2] ID:150 Name:pkt_2 | Src:0100 Tgt:1000 | Data(Hex):25 Data(Dec):37 | Type:SDP
[Driver_1] ID:151 Name:pkt_1 | Src:0010 Tgt:1000 | Data(Hex):7e Data(Dec):126 | Type:SDP
[Checker] Predicted Drop: Packet ID 152 is INVALID (Src:1000 Tgt:1101). Ignoring.
[Driver_3] ID:152 Name:pkt_3 | Src:1000 Tgt:1101 | Data(Hex):0b Data(Dec):11 | Type:MDP
[Checker] Predicted Drop: Packet ID 153 is INVALID (Src:0001 Tgt:0001). Ignoring.
[Driver_0] ID:153 Name:pkt_0 | Src:0001 Tgt:0001 | Data(Hex):2d Data(Dec):45 | Type:SDP
[Driver_2] ID:154 Name:pkt_2 | Src:0100 Tgt:1001 | Data(Hex):1b Data(Dec):27 | Type:MDP
[Driver_0] ID:155 Name:pkt_0 | Src:0001 Tgt:0110 | Data(Hex):b1 Data(Dec):177 | Type:MDP
[Checker] Predicted Drop: Packet ID 156 is INVALID (Src:0010 Tgt:0010). Ignoring.
[Driver_1] ID:156 Name:pkt_1 | Src:0010 Tgt:0010 | Data(Hex):8c Data(Dec):140 | Type:SDP
[Driver_2] ID:157 Name:pkt_2 | Src:0100 Tgt:0001 | Data(Hex):6b Data(Dec):107 | Type:SDP
[Checker] Predicted Drop: Packet ID 158 is INVALID (Src:1000 Tgt:1000). Ignoring.
[Driver_3] ID:158 Name:pkt_3 | Src:1000 Tgt:1000 | Data(Hex):6e Data(Dec):110 | Type:SDP
