Synt/gls_final_cg.log
Command: /project/verif/users/arielt/ws/ex_vlsi_switch_project_ariel/Synt/./simv +vcs+initreg+1 +ntb_random_seed_automatic +ERR_PKT -cm line+cond+fsm+branch+tgl -cm_dir ./cov_work/gls_simv.vdb -cm_name gls_final_submission -l gls_final_cg.log
Chronologic VCS simulator copyright 1991-2025
Contains Synopsys proprietary information.
Compiler version X-2025.06-1_Full64; Runtime version X-2025.06-1_Full64;  Jan  9 00:38 2026
NOTE: automatic random seed used: 1417513097
Doing SDF annotation ...... Done
Loading SDF Delays from switch_4port.sdf...
--- Starting Simulation (Driver-Driven) ---
Number of packets about to be generated at each port:  60
[Checker] Predicted Drop: Packet ID 0 is INVALID (Src:0001 Tgt:1011). Ignoring.
[Driver_0] ID:0 Name:pkt_0 | Src:0001 Tgt:1011 | Data(Hex):74 Data(Dec):116 | Type:MDP
[Checker] Predicted Drop: Packet ID 1 is INVALID (Src:0010 Tgt:0010). Ignoring.
[Driver_1] ID:1 Name:pkt_1 | Src:0010 Tgt:0010 | Data(Hex):35 Data(Dec):53 | Type:SDP
[Checker] Predicted Drop: Packet ID 2 is INVALID (Src:0100 Tgt:1110). Ignoring.
[Driver_2] ID:2 Name:pkt_2 | Src:0100 Tgt:1110 | Data(Hex):73 Data(Dec):115 | Type:MDP
[Driver_3] ID:3 Name:pkt_3 | Src:1000 Tgt:0110 | Data(Hex):3d Data(Dec):61 | Type:MDP
[Checker] Predicted Drop: Packet ID 4 is INVALID (Src:0010 Tgt:0000). Ignoring.
[Driver_1] ID:4 Name:pkt_1 | Src:0010 Tgt:0000 | Data(Hex):d4 Data(Dec):212 | Type:ERR
[Checker] Predicted Drop: Packet ID 5 is INVALID (Src:0001 Tgt:0001). Ignoring.
[Driver_0] ID:5 Name:pkt_0 | Src:0001 Tgt:0001 | Data(Hex):d6 Data(Dec):214 | Type:SDP
[Checker] Predicted Drop: Packet ID 6 is INVALID (Src:0100 Tgt:0110). Ignoring.
[Driver_2] ID:6 Name:pkt_2 | Src:0100 Tgt:0110 | Data(Hex):e3 Data(Dec):227 | Type:MDP
[Checker] Predicted Drop: Packet ID 7 is INVALID (Src:1000 Tgt:1101). Ignoring.
[Driver_3] ID:7 Name:pkt_3 | Src:1000 Tgt:1101 | Data(Hex):ef Data(Dec):239 | Type:MDP
[Checker] Predicted Drop: Packet ID 8 is INVALID (Src:1000 Tgt:0000). Ignoring.
[Driver_3] ID:8 Name:pkt_3 | Src:1000 Tgt:0000 | Data(Hex):6f Data(Dec):111 | Type:ERR
[Checker] Predicted Drop: Packet ID 9 is INVALID (Src:0010 Tgt:0110). Ignoring.
[Driver_1] ID:9 Name:pkt_1 | Src:0010 Tgt:0110 | Data(Hex):e1 Data(Dec):225 | Type:MDP
[Monitor_1] ID:10 Name:monitored | Src:1000 Tgt:0110 | Data(Hex):3d Data(Dec):61 | Type:MDP
[Monitor_2] ID:11 Name:monitored | Src:1000 Tgt:0110 | Data(Hex):3d Data(Dec):61 | Type:MDP
[Driver_0] ID:12 Name:pkt_0 | Src:0001 Tgt:1110 | Data(Hex):a5 Data(Dec):165 | Type:MDP
[Checker] Predicted Drop: Packet ID 13 is INVALID (Src:0100 Tgt:0000). Ignoring.
[Driver_2] ID:13 Name:pkt_2 | Src:0100 Tgt:0000 | Data(Hex):43 Data(Dec):67 | Type:ERR
[Driver_3] ID:14 Name:pkt_3 | Src:1000 Tgt:0101 | Data(Hex):09 Data(Dec):9 | Type:MDP
[Driver_1] ID:15 Name:pkt_1 | Src:0010 Tgt:1100 | Data(Hex):91 Data(Dec):145 | Type:MDP
[Driver_2] ID:16 Name:pkt_2 | Src:0100 Tgt:1011 | Data(Hex):4d Data(Dec):77 | Type:MDP
[Monitor_1] ID:17 Name:monitored | Src:0001 Tgt:1110 | Data(Hex):a5 Data(Dec):165 | Type:MDP
[Monitor_2] ID:18 Name:monitored | Src:0001 Tgt:1110 | Data(Hex):a5 Data(Dec):165 | Type:MDP
[Monitor_3] ID:19 Name:monitored | Src:0001 Tgt:1110 | Data(Hex):a5 Data(Dec):165 | Type:MDP
[Checker] Predicted Drop: Packet ID 20 is INVALID (Src:0010 Tgt:0010). Ignoring.
[Driver_1] ID:20 Name:pkt_1 | Src:0010 Tgt:0010 | Data(Hex):0b Data(Dec):11 | Type:SDP
[Monitor_0] ID:21 Name:monitored | Src:1000 Tgt:0101 | Data(Hex):09 Data(Dec):9 | Type:MDP
[Monitor_2] ID:22 Name:monitored | Src:1000 Tgt:0101 | Data(Hex):09 Data(Dec):9 | Type:MDP
[Monitor_2] ID:23 Name:monitored | Src:0010 Tgt:1100 | Data(Hex):91 Data(Dec):145 | Type:MDP
[Monitor_3] ID:24 Name:monitored | Src:0010 Tgt:1100 | Data(Hex):91 Data(Dec):145 | Type:MDP
[Monitor_0] ID:25 Name:monitored | Src:0100 Tgt:1011 | Data(Hex):4d Data(Dec):77 | Type:MDP
[Monitor_1] ID:26 Name:monitored | Src:0100 Tgt:1011 | Data(Hex):4d Data(Dec):77 | Type:MDP
[Monitor_3] ID:27 Name:monitored | Src:0100 Tgt:1011 | Data(Hex):4d Data(Dec):77 | Type:MDP
[Checker] Predicted Drop: Packet ID 28 is INVALID (Src:0001 Tgt:0001). Ignoring.
[Driver_0] ID:28 Name:pkt_0 | Src:0001 Tgt:0001 | Data(Hex):42 Data(Dec):66 | Type:SDP
[Checker] Predicted Drop: Packet ID 29 is INVALID (Src:0100 Tgt:0111). Ignoring.
[Driver_2] ID:29 Name:pkt_2 | Src:0100 Tgt:0111 | Data(Hex):14 Data(Dec):20 | Type:MDP
[Driver_3] ID:30 Name:pkt_3 | Src:1000 Tgt:1111 | Data(Hex):0c Data(Dec):12 | Type:BDP
[Driver_2] ID:31 Name:pkt_2 | Src:0100 Tgt:0001 | Data(Hex):99 Data(Dec):153 | Type:SDP
[Checker] Predicted Drop: Packet ID 32 is INVALID (Src:0010 Tgt:0111). Ignoring.
[Driver_1] ID:32 Name:pkt_1 | Src:0010 Tgt:0111 | Data(Hex):eb Data(Dec):235 | Type:MDP
[Monitor_0] ID:33 Name:monitored | Src:1000 Tgt:1111 | Data(Hex):0c Data(Dec):12 | Type:BDP
[Monitor_1] ID:34 Name:monitored | Src:1000 Tgt:1111 | Data(Hex):0c Data(Dec):12 | Type:BDP
[Monitor_2] ID:35 Name:monitored | Src:1000 Tgt:1111 | Data(Hex):0c Data(Dec):12 | Type:BDP
[Monitor_3] ID:36 Name:monitored | Src:1000 Tgt:1111 | Data(Hex):0c Data(Dec):12 | Type:BDP
[Checker] Predicted Drop: Packet ID 37 is INVALID (Src:1000 Tgt:1010). Ignoring.
[Driver_3] ID:37 Name:pkt_3 | Src:1000 Tgt:1010 | Data(Hex):d5 Data(Dec):213 | Type:MDP
[Driver_0] ID:38 Name:pkt_0 | Src:0001 Tgt:1100 | Data(Hex):54 Data(Dec):84 | Type:MDP
[Monitor_0] ID:39 Name:monitored | Src:0100 Tgt:0001 | Data(Hex):99 Data(Dec):153 | Type:SDP
[Driver_2] ID:40 Name:pkt_2 | Src:0100 Tgt:0001 | Data(Hex):f6 Data(Dec):246 | Type:SDP
[Checker] Predicted Drop: Packet ID 41 is INVALID (Src:0010 Tgt:1010). Ignoring.
[Driver_1] ID:41 Name:pkt_1 | Src:0010 Tgt:1010 | Data(Hex):4a Data(Dec):74 | Type:MDP
[Monitor_2] ID:42 Name:monitored | Src:0001 Tgt:1100 | Data(Hex):54 Data(Dec):84 | Type:MDP
[Monitor_3] ID:43 Name:monitored | Src:0001 Tgt:1100 | Data(Hex):54 Data(Dec):84 | Type:MDP
[Checker] Predicted Drop: Packet ID 44 is INVALID (Src:0100 Tgt:1100). Ignoring.
[Driver_2] ID:44 Name:pkt_2 | Src:0100 Tgt:1100 | Data(Hex):ca Data(Dec):202 | Type:MDP
[Monitor_0] ID:45 Name:monitored | Src:0100 Tgt:0001 | Data(Hex):f6 Data(Dec):246 | Type:SDP
[Checker] Predicted Drop: Packet ID 46 is INVALID (Src:0001 Tgt:1001). Ignoring.
[Driver_0] ID:46 Name:pkt_0 | Src:0001 Tgt:1001 | Data(Hex):b9 Data(Dec):185 | Type:MDP
[Checker] Predicted Drop: Packet ID 47 is INVALID (Src:1000 Tgt:1011). Ignoring.
[Driver_3] ID:47 Name:pkt_3 | Src:1000 Tgt:1011 | Data(Hex):09 Data(Dec):9 | Type:MDP
[Checker] Predicted Drop: Packet ID 48 is INVALID (Src:0010 Tgt:1110). Ignoring.
[Driver_1] ID:48 Name:pkt_1 | Src:0010 Tgt:1110 | Data(Hex):24 Data(Dec):36 | Type:MDP
[Driver_0] ID:49 Name:pkt_0 | Src:0001 Tgt:1111 | Data(Hex):ca Data(Dec):202 | Type:BDP
[Checker] Predicted Drop: Packet ID 50 is INVALID (Src:0100 Tgt:1100). Ignoring.
[Driver_2] ID:50 Name:pkt_2 | Src:0100 Tgt:1100 | Data(Hex):0d Data(Dec):13 | Type:MDP
[Driver_2] ID:51 Name:pkt_2 | Src:0100 Tgt:1001 | Data(Hex):08 Data(Dec):8 | Type:MDP
[Driver_3] ID:52 Name:pkt_3 | Src:1000 Tgt:0110 | Data(Hex):14 Data(Dec):20 | Type:MDP
[Monitor_0] ID:53 Name:monitored | Src:0001 Tgt:1111 | Data(Hex):ca Data(Dec):202 | Type:BDP
[Monitor_1] ID:54 Name:monitored | Src:0001 Tgt:1111 | Data(Hex):ca Data(Dec):202 | Type:BDP
[Monitor_2] ID:55 Name:monitored | Src:0001 Tgt:1111 | Data(Hex):ca Data(Dec):202 | Type:BDP
[Monitor_3] ID:56 Name:monitored | Src:0001 Tgt:1111 | Data(Hex):ca Data(Dec):202 | Type:BDP
[Driver_1] ID:57 Name:pkt_1 | Src:0010 Tgt:1000 | Data(Hex):87 Data(Dec):135 | Type:SDP
[Monitor_1] ID:58 Name:monitored | Src:1000 Tgt:0110 | Data(Hex):14 Data(Dec):20 | Type:MDP
[Monitor_2] ID:59 Name:monitored | Src:1000 Tgt:0110 | Data(Hex):14 Data(Dec):20 | Type:MDP
[Driver_0] ID:60 Name:pkt_0 | Src:0001 Tgt:1111 | Data(Hex):c8 Data(Dec):200 | Type:BDP
[Monitor_3] ID:61 Name:monitored | Src:0010 Tgt:1000 | Data(Hex):87 Data(Dec):135 | Type:SDP
[Monitor_0] ID:62 Name:monitored | Src:0100 Tgt:1001 | Data(Hex):08 Data(Dec):8 | Type:MDP
[Monitor_3] ID:63 Name:monitored | Src:0100 Tgt:1001 | Data(Hex):08 Data(Dec):8 | Type:MDP
[Driver_1] ID:64 Name:pkt_1 | Src:0010 Tgt:1111 | Data(Hex):e7 Data(Dec):231 | Type:BDP
[Driver_3] ID:65 Name:pkt_3 | Src:1000 Tgt:0010 | Data(Hex):79 Data(Dec):121 | Type:SDP
[Checker] Predicted Drop: Packet ID 66 is INVALID (Src:0100 Tgt:1110). Ignoring.
[Driver_2] ID:66 Name:pkt_2 | Src:0100 Tgt:1110 | Data(Hex):0d Data(Dec):13 | Type:MDP
[Checker] Predicted Drop: Packet ID 67 is INVALID (Src:0001 Tgt:0001). Ignoring.
[Driver_0] ID:67 Name:pkt_0 | Src:0001 Tgt:0001 | Data(Hex):6d Data(Dec):109 | Type:SDP
[Checker] Predicted Drop: Packet ID 68 is INVALID (Src:1000 Tgt:1001). Ignoring.
[Driver_3] ID:68 Name:pkt_3 | Src:1000 Tgt:1001 | Data(Hex):84 Data(Dec):132 | Type:MDP
[Monitor_0] ID:69 Name:monitored | Src:0001 Tgt:1111 | Data(Hex):c8 Data(Dec):200 | Type:BDP
[Monitor_1] ID:70 Name:monitored | Src:0001 Tgt:1111 | Data(Hex):c8 Data(Dec):200 | Type:BDP
[Monitor_2] ID:71 Name:monitored | Src:0001 Tgt:1111 | Data(Hex):c8 Data(Dec):200 | Type:BDP
[Monitor_3] ID:72 Name:monitored | Src:0001 Tgt:1111 | Data(Hex):c8 Data(Dec):200 | Type:BDP
[Monitor_0] ID:73 Name:monitored | Src:0010 Tgt:1111 | Data(Hex):e7 Data(Dec):231 | Type:BDP
[Monitor_1] ID:74 Name:monitored | Src:0010 Tgt:1111 | Data(Hex):e7 Data(Dec):231 | Type:BDP
[Monitor_2] ID:75 Name:monitored | Src:0010 Tgt:1111 | Data(Hex):e7 Data(Dec):231 | Type:BDP
[Monitor_3] ID:76 Name:monitored | Src:0010 Tgt:1111 | Data(Hex):e7 Data(Dec):231 | Type:BDP
[Checker] Predicted Drop: Packet ID 77 is INVALID (Src:0010 Tgt:0111). Ignoring.
[Driver_1] ID:77 Name:pkt_1 | Src:0010 Tgt:0111 | Data(Hex):aa Data(Dec):170 | Type:MDP
[Monitor_1] ID:78 Name:monitored | Src:1000 Tgt:0010 | Data(Hex):79 Data(Dec):121 | Type:SDP
[Driver_0] ID:79 Name:pkt_0 | Src:0001 Tgt:0010 | Data(Hex):42 Data(Dec):66 | Type:SDP
[Driver_2] ID:80 Name:pkt_2 | Src:0100 Tgt:1010 | Data(Hex):ca Data(Dec):202 | Type:MDP
[Driver_3] ID:81 Name:pkt_3 | Src:1000 Tgt:0010 | Data(Hex):85 Data(Dec):133 | Type:SDP
[Driver_0] ID:82 Name:pkt_0 | Src:0001 Tgt:1110 | Data(Hex):f4 Data(Dec):244 | Type:MDP
[Monitor_1] ID:83 Name:monitored | Src:0001 Tgt:0010 | Data(Hex):42 Data(Dec):66 | Type:SDP
[Driver_1] ID:84 Name:pkt_1 | Src:0010 Tgt:0100 | Data(Hex):e5 Data(Dec):229 | Type:SDP
[Monitor_1] ID:85 Name:monitored | Src:0100 Tgt:1010 | Data(Hex):ca Data(Dec):202 | Type:MDP
[Monitor_3] ID:86 Name:monitored | Src:0100 Tgt:1010 | Data(Hex):ca Data(Dec):202 | Type:MDP
[Driver_0] ID:87 Name:pkt_0 | Src:0001 Tgt:1000 | Data(Hex):fc Data(Dec):252 | Type:SDP
[Monitor_1] ID:88 Name:monitored | Src:1000 Tgt:0010 | Data(Hex):85 Data(Dec):133 | Type:SDP
[Driver_2] ID:89 Name:pkt_2 | Src:0100 Tgt:0010 | Data(Hex):fe Data(Dec):254 | Type:SDP
[Monitor_1] ID:90 Name:monitored | Src:0001 Tgt:1110 | Data(Hex):f4 Data(Dec):244 | Type:MDP
[Monitor_2] ID:91 Name:monitored | Src:0001 Tgt:1110 | Data(Hex):f4 Data(Dec):244 | Type:MDP
[Monitor_3] ID:92 Name:monitored | Src:0001 Tgt:1110 | Data(Hex):f4 Data(Dec):244 | Type:MDP
[Checker] Predicted Drop: Packet ID 93 is INVALID (Src:1000 Tgt:1100). Ignoring.
[Driver_3] ID:93 Name:pkt_3 | Src:1000 Tgt:1100 | Data(Hex):cf Data(Dec):207 | Type:MDP
[Monitor_2] ID:94 Name:monitored | Src:0010 Tgt:0100 | Data(Hex):e5 Data(Dec):229 | Type:SDP
[Driver_2] ID:95 Name:pkt_2 | Src:0100 Tgt:1001 | Data(Hex):2b Data(Dec):43 | Type:MDP
[Monitor_1] ID:96 Name:monitored | Src:0100 Tgt:0010 | Data(Hex):fe Data(Dec):254 | Type:SDP
[Monitor_3] ID:97 Name:monitored | Src:0001 Tgt:1000 | Data(Hex):fc Data(Dec):252 | Type:SDP
[Driver_0] ID:98 Name:pkt_0 | Src:0001 Tgt:1110 | Data(Hex):81 Data(Dec):129 | Type:MDP
[Checker] Predicted Drop: Packet ID 99 is INVALID (Src:0100 Tgt:1101). Ignoring.
[Driver_2] ID:99 Name:pkt_2 | Src:0100 Tgt:1101 | Data(Hex):39 Data(Dec):57 | Type:MDP
[Checker] Predicted Drop: Packet ID 100 is INVALID (Src:0010 Tgt:0010). Ignoring.
[Driver_1] ID:100 Name:pkt_1 | Src:0010 Tgt:0010 | Data(Hex):28 Data(Dec):40 | Type:SDP
[Monitor_0] ID:101 Name:monitored | Src:0100 Tgt:1001 | Data(Hex):2b Data(Dec):43 | Type:MDP
[Monitor_3] ID:102 Name:monitored | Src:0100 Tgt:1001 | Data(Hex):2b Data(Dec):43 | Type:MDP
[Monitor_1] ID:103 Name:monitored | Src:0001 Tgt:1110 | Data(Hex):81 Data(Dec):129 | Type:MDP
[Monitor_2] ID:104 Name:monitored | Src:0001 Tgt:1110 | Data(Hex):81 Data(Dec):129 | Type:MDP
[Monitor_3] ID:105 Name:monitored | Src:0001 Tgt:1110 | Data(Hex):81 Data(Dec):129 | Type:MDP
[Checker] Predicted Drop: Packet ID 106 is INVALID (Src:1000 Tgt:0000). Ignoring.
[Driver_3] ID:106 Name:pkt_3 | Src:1000 Tgt:0000 | Data(Hex):63 Data(Dec):99 | Type:ERR
[Checker] Predicted Drop: Packet ID 107 is INVALID (Src:0001 Tgt:1011). Ignoring.
[Driver_0] ID:107 Name:pkt_0 | Src:0001 Tgt:1011 | Data(Hex):31 Data(Dec):49 | Type:MDP
[Checker] Predicted Drop: Packet ID 108 is INVALID (Src:0100 Tgt:1100). Ignoring.
[Driver_2] ID:108 Name:pkt_2 | Src:0100 Tgt:1100 | Data(Hex):c9 Data(Dec):201 | Type:MDP
[Driver_1] ID:109 Name:pkt_1 | Src:0010 Tgt:1111 | Data(Hex):7f Data(Dec):127 | Type:BDP
[Checker] Predicted Drop: Packet ID 110 is INVALID (Src:1000 Tgt:1101). Ignoring.
[Driver_3] ID:110 Name:pkt_3 | Src:1000 Tgt:1101 | Data(Hex):32 Data(Dec):50 | Type:MDP
[Driver_0] ID:111 Name:pkt_0 | Src:0001 Tgt:1000 | Data(Hex):be Data(Dec):190 | Type:SDP
[Driver_1] ID:112 Name:pkt_1 | Src:0010 Tgt:1100 | Data(Hex):0b Data(Dec):11 | Type:MDP
[Monitor_0] ID:113 Name:monitored | Src:0010 Tgt:1111 | Data(Hex):7f Data(Dec):127 | Type:BDP
[Monitor_1] ID:114 Name:monitored | Src:0010 Tgt:1111 | Data(Hex):7f Data(Dec):127 | Type:BDP
[Monitor_2] ID:115 Name:monitored | Src:0010 Tgt:1111 | Data(Hex):7f Data(Dec):127 | Type:BDP
[Monitor_3] ID:116 Name:monitored | Src:0010 Tgt:1111 | Data(Hex):7f Data(Dec):127 | Type:BDP
[Driver_3] ID:117 Name:pkt_3 | Src:1000 Tgt:0010 | Data(Hex):82 Data(Dec):130 | Type:SDP
[Checker] Predicted Drop: Packet ID 118 is INVALID (Src:0001 Tgt:1101). Ignoring.
[Driver_0] ID:118 Name:pkt_0 | Src:0001 Tgt:1101 | Data(Hex):9d Data(Dec):157 | Type:MDP
[Driver_2] ID:119 Name:pkt_2 | Src:0100 Tgt:1010 | Data(Hex):64 Data(Dec):100 | Type:MDP
[Monitor_3] ID:120 Name:monitored | Src:0001 Tgt:1000 | Data(Hex):be Data(Dec):190 | Type:SDP
[Monitor_1] ID:121 Name:monitored | Src:1000 Tgt:0010 | Data(Hex):82 Data(Dec):130 | Type:SDP
[Monitor_2] ID:122 Name:monitored | Src:0010 Tgt:1100 | Data(Hex):0b Data(Dec):11 | Type:MDP
[Monitor_3] ID:123 Name:monitored | Src:0010 Tgt:1100 | Data(Hex):0b Data(Dec):11 | Type:MDP
[Checker] Predicted Drop: Packet ID 124 is INVALID (Src:1000 Tgt:1011). Ignoring.
[Driver_3] ID:124 Name:pkt_3 | Src:1000 Tgt:1011 | Data(Hex):6b Data(Dec):107 | Type:MDP
[Monitor_1] ID:125 Name:monitored | Src:0100 Tgt:1010 | Data(Hex):64 Data(Dec):100 | Type:MDP
[Monitor_3] ID:126 Name:monitored | Src:0100 Tgt:1010 | Data(Hex):64 Data(Dec):100 | Type:MDP
[Driver_1] ID:127 Name:pkt_1 | Src:0010 Tgt:0001 | Data(Hex):b1 Data(Dec):177 | Type:SDP
[Checker] Predicted Drop: Packet ID 128 is INVALID (Src:0100 Tgt:1110). Ignoring.
[Driver_2] ID:128 Name:pkt_2 | Src:0100 Tgt:1110 | Data(Hex):7f Data(Dec):127 | Type:MDP
[Driver_1] ID:129 Name:pkt_1 | Src:0010 Tgt:0100 | Data(Hex):ad Data(Dec):173 | Type:SDP
[Checker] Predicted Drop: Packet ID 130 is INVALID (Src:0001 Tgt:0011). Ignoring.
[Driver_0] ID:130 Name:pkt_0 | Src:0001 Tgt:0011 | Data(Hex):59 Data(Dec):89 | Type:MDP
[Monitor_0] ID:131 Name:monitored | Src:0010 Tgt:0001 | Data(Hex):b1 Data(Dec):177 | Type:SDP
[Driver_3] ID:132 Name:pkt_3 | Src:1000 Tgt:0110 | Data(Hex):03 Data(Dec):3 | Type:MDP
[Monitor_2] ID:133 Name:monitored | Src:0010 Tgt:0100 | Data(Hex):ad Data(Dec):173 | Type:SDP
[Checker] Predicted Drop: Packet ID 134 is INVALID (Src:1000 Tgt:1101). Ignoring.
[Driver_3] ID:134 Name:pkt_3 | Src:1000 Tgt:1101 | Data(Hex):af Data(Dec):175 | Type:MDP
[Driver_1] ID:135 Name:pkt_1 | Src:0010 Tgt:0101 | Data(Hex):09 Data(Dec):9 | Type:MDP
[Driver_2] ID:136 Name:pkt_2 | Src:0100 Tgt:1011 | Data(Hex):29 Data(Dec):41 | Type:MDP
[Monitor_1] ID:137 Name:monitored | Src:1000 Tgt:0110 | Data(Hex):03 Data(Dec):3 | Type:MDP
[Monitor_2] ID:138 Name:monitored | Src:1000 Tgt:0110 | Data(Hex):03 Data(Dec):3 | Type:MDP
[Monitor_0] ID:139 Name:monitored | Src:0010 Tgt:0101 | Data(Hex):09 Data(Dec):9 | Type:MDP
[Monitor_2] ID:140 Name:monitored | Src:0010 Tgt:0101 | Data(Hex):09 Data(Dec):9 | Type:MDP
[Checker] Predicted Drop: Packet ID 141 is INVALID (Src:0001 Tgt:0101). Ignoring.
[Driver_0] ID:141 Name:pkt_0 | Src:0001 Tgt:0101 | Data(Hex):bb Data(Dec):187 | Type:MDP
[Driver_2] ID:142 Name:pkt_2 | Src:0100 Tgt:1011 | Data(Hex):89 Data(Dec):137 | Type:MDP
[Monitor_0] ID:143 Name:monitored | Src:0100 Tgt:1011 | Data(Hex):29 Data(Dec):41 | Type:MDP
[Monitor_1] ID:144 Name:monitored | Src:0100 Tgt:1011 | Data(Hex):29 Data(Dec):41 | Type:MDP
[Monitor_3] ID:145 Name:monitored | Src:0100 Tgt:1011 | Data(Hex):29 Data(Dec):41 | Type:MDP
[Checker] Predicted Drop: Packet ID 146 is INVALID (Src:0010 Tgt:1010). Ignoring.
[Driver_1] ID:146 Name:pkt_1 | Src:0010 Tgt:1010 | Data(Hex):5c Data(Dec):92 | Type:MDP
[Checker] Predicted Drop: Packet ID 147 is INVALID (Src:1000 Tgt:1110). Ignoring.
[Driver_3] ID:147 Name:pkt_3 | Src:1000 Tgt:1110 | Data(Hex):90 Data(Dec):144 | Type:MDP
[Monitor_0] ID:148 Name:monitored | Src:0100 Tgt:1011 | Data(Hex):89 Data(Dec):137 | Type:MDP
[Monitor_1] ID:149 Name:monitored | Src:0100 Tgt:1011 | Data(Hex):89 Data(Dec):137 | Type:MDP
[Monitor_3] ID:150 Name:monitored | Src:0100 Tgt:1011 | Data(Hex):89 Data(Dec):137 | Type:MDP
[Checker] Predicted Drop: Packet ID 151 is INVALID (Src:0100 Tgt:0111). Ignoring.
[Driver_2] ID:151 Name:pkt_2 | Src:0100 Tgt:0111 | Data(Hex):f0 Data(Dec):240 | Type:MDP
[Checker] Predicted Drop: Packet ID 152 is INVALID (Src:1000 Tgt:1010). Ignoring.
[Driver_3] ID:152 Name:pkt_3 | Src:1000 Tgt:1010 | Data(Hex):6b Data(Dec):107 | Type:MDP
[Driver_0] ID:153 Name:pkt_0 | Src:0001 Tgt:0010 | Data(Hex):b1 Data(Dec):177 | Type:SDP
[Checker] Predicted Drop: Packet ID 154 is INVALID (Src:0010 Tgt:1010). Ignoring.
[Driver_1] ID:154 Name:pkt_1 | Src:0010 Tgt:1010 | Data(Hex):24 Data(Dec):36 | Type:MDP
[Monitor_1] ID:155 Name:monitored | Src:0001 Tgt:0010 | Data(Hex):b1 Data(Dec):177 | Type:SDP
[Driver_1] ID:156 Name:pkt_1 | Src:0010 Tgt:0101 | Data(Hex):0a Data(Dec):10 | Type:MDP
[Checker] Predicted Drop: Packet ID 157 is INVALID (Src:0100 Tgt:0111). Ignoring.
[Driver_2] ID:157 Name:pkt_2 | Src:0100 Tgt:0111 | Data(Hex):72 Data(Dec):114 | Type:MDP
[Checker] Predicted Drop: Packet ID 158 is INVALID (Src:0001 Tgt:0001). Ignoring.
[Driver_0] ID:158 Name:pkt_0 | Src:0001 Tgt:0001 | Data(Hex):5d Data(Dec):93 | Type:SDP
[Monitor_0] ID:159 Name:monitored | Src:0010 Tgt:0101 | Data(Hex):0a Data(Dec):10 | Type:MDP
[Monitor_2] ID:160 Name:monitored | Src:0010 Tgt:0101 | Data(Hex):0a Data(Dec):10 | Type:MDP
[Driver_3] ID:161 Name:pkt_3 | Src:1000 Tgt:0100 | Data(Hex):d9 Data(Dec):217 | Type:SDP
[Checker] Predicted Drop: Packet ID 162 is INVALID (Src:0100 Tgt:0100). Ignoring.
[Driver_2] ID:162 Name:pkt_2 | Src:0100 Tgt:0100 | Data(Hex):bc Data(Dec):188 | Type:SDP
[Driver_1] ID:163 Name:pkt_1 | Src:0010 Tgt:0001 | Data(Hex):ff Data(Dec):255 | Type:SDP
[Driver_0] ID:164 Name:pkt_0 | Src:0001 Tgt:0100 | Data(Hex):3c Data(Dec):60 | Type:SDP
[Checker] Predicted Drop: Packet ID 165 is INVALID (Src:1000 Tgt:1011). Ignoring.
[Driver_3] ID:165 Name:pkt_3 | Src:1000 Tgt:1011 | Data(Hex):94 Data(Dec):148 | Type:MDP
[Monitor_2] ID:166 Name:monitored | Src:1000 Tgt:0100 | Data(Hex):d9 Data(Dec):217 | Type:SDP
[Driver_1] ID:167 Name:pkt_1 | Src:0010 Tgt:1111 | Data(Hex):30 Data(Dec):48 | Type:BDP
[Checker] Predicted Drop: Packet ID 168 is INVALID (Src:0100 Tgt:0101). Ignoring.
[Driver_2] ID:168 Name:pkt_2 | Src:0100 Tgt:0101 | Data(Hex):3e Data(Dec):62 | Type:MDP
[Monitor_0] ID:169 Name:monitored | Src:0010 Tgt:0001 | Data(Hex):ff Data(Dec):255 | Type:SDP
[Monitor_2] ID:170 Name:monitored | Src:0001 Tgt:0100 | Data(Hex):3c Data(Dec):60 | Type:SDP
[Checker] Predicted Drop: Packet ID 171 is INVALID (Src:1000 Tgt:1101). Ignoring.
[Driver_3] ID:171 Name:pkt_3 | Src:1000 Tgt:1101 | Data(Hex):c4 Data(Dec):196 | Type:MDP
[Driver_0] ID:172 Name:pkt_0 | Src:0001 Tgt:1000 | Data(Hex):38 Data(Dec):56 | Type:SDP
[Monitor_0] ID:173 Name:monitored | Src:0010 Tgt:1111 | Data(Hex):30 Data(Dec):48 | Type:BDP
[Monitor_1] ID:174 Name:monitored | Src:0010 Tgt:1111 | Data(Hex):30 Data(Dec):48 | Type:BDP
[Monitor_2] ID:175 Name:monitored | Src:0010 Tgt:1111 | Data(Hex):30 Data(Dec):48 | Type:BDP
[Monitor_3] ID:176 Name:monitored | Src:0010 Tgt:1111 | Data(Hex):30 Data(Dec):48 | Type:BDP
[Checker] Predicted Drop: Packet ID 177 is INVALID (Src:0100 Tgt:0100). Ignoring.
[Driver_2] ID:177 Name:pkt_2 | Src:0100 Tgt:0100 | Data(Hex):75 Data(Dec):117 | Type:SDP
[Driver_3] ID:178 Name:pkt_3 | Src:1000 Tgt:0110 | Data(Hex):c0 Data(Dec):192 | Type:MDP
[Driver_1] ID:179 Name:pkt_1 | Src:0010 Tgt:1101 | Data(Hex):9e Data(Dec):158 | Type:MDP
[Monitor_3] ID:180 Name:monitored | Src:0001 Tgt:1000 | Data(Hex):38 Data(Dec):56 | Type:SDP
[Driver_2] ID:181 Name:pkt_2 | Src:0100 Tgt:1111 | Data(Hex):95 Data(Dec):149 | Type:BDP
[Monitor_1] ID:182 Name:monitored | Src:1000 Tgt:0110 | Data(Hex):c0 Data(Dec):192 | Type:MDP
[Monitor_2] ID:183 Name:monitored | Src:1000 Tgt:0110 | Data(Hex):c0 Data(Dec):192 | Type:MDP
[Driver_0] ID:184 Name:pkt_0 | Src:0001 Tgt:0100 | Data(Hex):1f Data(Dec):31 | Type:SDP
[Monitor_0] ID:185 Name:monitored | Src:0010 Tgt:1101 | Data(Hex):9e Data(Dec):158 | Type:MDP
[Monitor_2] ID:186 Name:monitored | Src:0010 Tgt:1101 | Data(Hex):9e Data(Dec):158 | Type:MDP
[Monitor_3] ID:187 Name:monitored | Src:0010 Tgt:1101 | Data(Hex):9e Data(Dec):158 | Type:MDP
[Checker] Predicted Drop: Packet ID 188 is INVALID (Src:1000 Tgt:1000). Ignoring.
[Driver_3] ID:188 Name:pkt_3 | Src:1000 Tgt:1000 | Data(Hex):a2 Data(Dec):162 | Type:SDP
[Monitor_2] ID:189 Name:monitored | Src:0001 Tgt:0100 | Data(Hex):1f Data(Dec):31 | Type:SDP
[Monitor_0] ID:190 Name:monitored | Src:0100 Tgt:1111 | Data(Hex):95 Data(Dec):149 | Type:BDP
[Monitor_1] ID:191 Name:monitored | Src:0100 Tgt:1111 | Data(Hex):95 Data(Dec):149 | Type:BDP
[Monitor_2] ID:192 Name:monitored | Src:0100 Tgt:1111 | Data(Hex):95 Data(Dec):149 | Type:BDP
[Monitor_3] ID:193 Name:monitored | Src:0100 Tgt:1111 | Data(Hex):95 Data(Dec):149 | Type:BDP
[Checker] Predicted Drop: Packet ID 194 is INVALID (Src:0010 Tgt:0000). Ignoring.
[Driver_1] ID:194 Name:pkt_1 | Src:0010 Tgt:0000 | Data(Hex):4b Data(Dec):75 | Type:ERR
